:0300000002000EED
:0C000E00787FE4F6D8FD75810D020055E6
:03000300010800F1
:0E00FF00E4FEEEC39F50077D0DDDFE0E80F483
:01010D0022CF
:1000C50020B5257F141200FF20B51D0508E508247D
:1000D500FE600D04700F758C06758A06D28C80053E
:0800E500C28CE4F50830B5FD02
:0100ED0022F0
:03000B0002009A56
:10009A00C0E0C0D0050AE50A70020509B49017E568
:1000AA0009B40112750900750A00050BE50BB40ABB
:0B00BA0005750B00B2B3D0D0D0E032CF
:1000EE00758902D2A9D2AFE4F50BC28C1200C5807D
:0100FE00FB06
:10001A000200EEE493A3F8E493A34003F68001F20E
:10002A0008DFF48029E493A3F85407240CC8C333E7
:10003A00C4540F4420C8834004F456800146F6DFB6
:10004A00E4800B0102040810204080900003E47E43
:10005A00019360BCA3FF543F30E509541FFEE493AB
:10006A00A360010ECF54C025E060A840B8E493A372
:10007A00FAE493A3F8E493A3C8C582C8CAC583CA9D
:10008A00F0A3C8C582C8CAC583CADFE9DEE780BE55
:0100060000F9
:00000001FF
