Flow report for scan
Wed Jun 02 16:07:42 2010
Quartus II Version 7.2 Build 151 09/26/2007 SJ Full Version


---------------------
; Table of Contents ;
---------------------
  1. Legal Notice
  2. Flow Summary
  3. Flow Settings
  4. Flow Non-Default Global Settings
  5. Flow Elapsed Time
  6. Flow Log



----------------
; Legal Notice ;
----------------
Copyright (C) 1991-2007 Altera Corporation
Your use of Altera Corporation's design tools, logic functions 
and other software and tools, and its AMPP partner logic 
functions, and any output files from any of the foregoing 
(including device programming or simulation files), and any 
associated documentation or information are expressly subject 
to the terms and conditions of the Altera Program License 
Subscription Agreement, Altera MegaCore Function License 
Agreement, or other applicable license agreement, including, 
without limitation, that your use is for the sole purpose of 
programming logic devices manufactured by Altera and sold by 
Altera or its authorized distributors.  Please refer to the 
applicable agreement for further details.



+---------------------------------------------------------------------+
; Flow Summary                                                        ;
+--------------------------+------------------------------------------+
; Flow Status              ; Successful - Wed Jun 02 16:07:42 2010    ;
; Quartus II Version       ; 7.2 Build 151 09/26/2007 SJ Full Version ;
; Revision Name            ; scan                                     ;
; Top-level Entity Name    ; scan                                     ;
; Family                   ; Cyclone                                  ;
; Device                   ; EP1C6Q240C8                              ;
; Timing Models            ; Final                                    ;
; Met timing requirements  ; Yes                                      ;
; Total logic elements     ; 54 / 5,980 ( < 1 % )                     ;
; Total pins               ; 17 / 185 ( 9 % )                         ;
; Total virtual pins       ; 0                                        ;
; Total memory bits        ; 0 / 92,160 ( 0 % )                       ;
; DSP block 9-bit elements ; 0                                        ;
; Total PLLs               ; 0 / 2 ( 0 % )                            ;
; Total DLLs               ; 0                                        ;
+--------------------------+------------------------------------------+


+-----------------------------------------+
; Flow Settings                           ;
+-------------------+---------------------+
; Option            ; Setting             ;
+-------------------+---------------------+
; Start date & time ; 06/02/2010 16:07:29 ;
; Main task         ; Compilation         ;
; Revision Name     ; scan                ;
+-------------------+---------------------+


+------------------------------------------------------------------------------------------------------+
; Flow Non-Default Global Settings                                                                     ;
+------------------------------------+-------+------------------------------+-------------+------------+
; Assignment Name                    ; Value ; Default Value                ; Entity Name ; Section Id ;
+------------------------------------+-------+------------------------------+-------------+------------+
; INCREMENTAL_COMPILATION            ; Off   ; FULL_INCREMENTAL_COMPILATION ; --          ; --         ;
; USE_GENERATED_PHYSICAL_CONSTRAINTS ; Off   ; --                           ; --          ; eda_palace ;
+------------------------------------+-------+------------------------------+-------------+------------+


+------------------------------------------------------------------+
; Flow Elapsed Time                                                ;
+-------------------------+--------------+-------------------------+
; Module Name             ; Elapsed Time ; Average Processors Used ;
+-------------------------+--------------+-------------------------+
; Analysis & Synthesis    ; 00:00:03     ; 1.0                     ;
; Fitter                  ; 00:00:04     ; 1.0                     ;
; Assembler               ; 00:00:02     ; 1.0                     ;
; Classic Timing Analyzer ; 00:00:00     ; 1.0                     ;
; Total                   ; 00:00:09     ; --                      ;
+-------------------------+--------------+-------------------------+


------------
; Flow Log ;
------------
quartus_map --read_settings_files=on --write_settings_files=off scan -c scan
quartus_fit --read_settings_files=off --write_settings_files=off scan -c scan
quartus_asm --read_settings_files=off --write_settings_files=off scan -c scan
quartus_tan --read_settings_files=off --write_settings_files=off scan -c scan --timing_analysis_only



