

资料来源：http://item.taobao.com/item.htm?id=15832996522

1.	http://115.com/file/dpz0u30z#0001、PC_机与单片机通信(RS232_协议).rar
2.	http://115.com/file/dpz0urze#0002、C与VB语言联合在proteus上仿真.rar
3.	http://115.com/file/dpz0u8j2#0003、IC卡读写仿真.rar
4.	http://115.com/file/dpz0jxwo#0004、Integrate就医服务平台论文.rar
5.	http://115.com/file/be7fvru9#0005、PC红外线遥控器上位机及电路图.rar
6.	http://115.com/file/c2ht60mv#0006、PLC电梯控制系统论文.rar
7.	http://115.com/file/angyrubs#0007、VB上位机程序控制DS1302时钟的proteus仿真.rar
8.	http://115.com/file/c2htcbxs#0008、VB上位机与18b20下位机.rar
9.	http://115.com/file/angy84or#0009、八路扫描式抢答器设计论文.rar
10.	http://115.com/file/e7nv1f9w#0010、比较全面的手机原理资料.rar
11.	http://115.com/file/be7fn3d7#0011、采用实时时钟芯片DS1302+AT89C2051的红外遥控LED电子钟.rar
12.	http://115.com/file/c2htczrf#0012、51单片机超声波测距程序.rar
13.	http://115.com/file/angy8fhb#0013、单片机C语言程序设计实训100例——基于8051+Proteus仿真.rar
14.	http://115.com/file/be7fns09#0014、电机转速测量系统论文.rar
15.	http://115.com/file/be7fnp1p#0015、多功能出租车计价器设计论文资料.rar
16.	http://115.com/file/c2htc6zf#0016、多功能数字时钟设计论文资料.rar
17.	http://115.com/file/dpz0ju8s#0017、肺活量测量仪设计论文资料.rar
18.	http://115.com/file/be7fnnz9#0018、高保真音响设计制作论文资料.rar
19.	http://115.com/file/e7nv1cjq#0019、高灵敏无线探听器电路资料.rar
20.	http://115.com/file/c2htcwp0#0020、给初学51单片机的40个实验汇编语言对应C语言加说明.rar
21.	http://115.com/file/be7fnzh3#0021、国旗升降系统程序及原理图资料.rar
22.	http://115.com/file/be7fn0sr#0022、基于51单片机的电子万年历的设计论文资料.rar
23.	http://115.com/file/be7fnia9#0023、基于51单片机的数字频率计设计论文资料.rar
24.	http://115.com/file/be7fnuo7#0024、基于AVR及无线收发模块的脉搏监测系统设计论文资料.rar
25.	http://115.com/file/c2htcqmf#0025、基于CPLD的三相多波形函数发生器设计论文资料.rar
26.	http://115.com/file/angy838g#0026、基于DDS的信号源设计论文资料.rar
27.	http://115.com/file/angy82uk#0027、基于FPGA多通道采样系统设计论文资料.rar
28.	http://115.com/file/angy8byr#0028、基于GSM短信模块的家庭防盗报警系统论文资料.rar
29.	http://115.com/file/be7fndua#0029、基于IGBT的变频电源设计论文资料.rar
30.	http://115.com/file/c2htc7q6#0030、基于PLL信号发生器的设计论文资料.rar
31.	http://115.com/file/angypdeg#0031、基于PSTN的家用电器远程控制系统设计论文资料.rar
32.	http://115.com/file/c2htiu1f#0032、基于USB的经络信号的检测系统与设计论文资料.rar
33.	http://115.com/file/angypift#0033、基于USB接口的温度控制器设计资料.rar
34.	http://115.com/file/angyp0qg#0034、基于单片机的电集中抄表设计论文资料.rar
35.	http://115.com/file/angypeyk#0035、基于单片机的简易逻辑分析仪设计论文资料.rar
36.	http://115.com/file/e7nv0nq4#0036、基于单片机的数字温度计设计论文资料.rar
37.	http://115.com/file/c2htij6v#0037、基于单片机的数字钟设计论文资料.rar
38.	http://115.com/file/dpz0ahpb#0038、基于单片机的水温控制系统PDF资料.rar
39.	http://115.com/file/e7nv0j72#0039、基于单片机的水温控制系统设计论文资料.rar
40.	http://115.com/file/be7f1v99#0040、基于单片机的作息时间控制钟系统资料.rar
41.	http://115.com/file/e7nv09aq#0041、基于单片机的温度控制系统论文资料.rar
42.	http://115.com/file/c2htigiv#0042、基于单片机控制的交通灯毕业设计资料.rar
43.	http://115.com/file/c2htwbgf#0043、基于单片机控制的开关电源论文资料.rar
44.	http://115.com/file/c2htivuh#0044、基于网络的虚拟仪器测试系统论文资料.rar
45.	http://115.com/file/angypa0r#0045、家用音响设计制作论文资料.rar
46.	http://115.com/file/e7nv25un#0046、具有定时功能的八路数显抢答器的设计论文.rar
47.	http://115.com/file/be7fafc3#0047、开关电源论文资料.rar
48.	http://115.com/file/c2htvo9f#0048、自来水厂全自动恒压供水监控系统论文资料.rar
49.	http://115.com/file/be7fakqv#0049、量程自动切换数字电压表proteus仿真+程序资料.rar
50.	http://115.com/file/e7nv2piw#0050、牧场智能挤奶与综合信息管理系统论文资料.rar
51.	http://115.com/file/dpz0c27o#0051、汽车实验台电路控制系统论文.rar
52.	http://115.com/file/angy3tuk#0052、汽车尾灯控制电路设计论文资料.rar
53.	http://115.com/file/dpz0cl0u#0053、抢答器论文及其proteus仿真资料.rar
54.	http://115.com/file/dpz0cykq#0054、全遥控数字音量控制的D_类功率放大器论文资料.rar
55.	http://115.com/file/c2htvywh#0055、ATMEGA16单片机实现的数控频率计原理图及其程序论文.rar
56.	http://115.com/file/e7nvus1n#0056、数控云台proteus仿真+程序资料.rar
57.	http://115.com/file/angy3st1#0057、AT89S52单片机实现数控直流电流源论文资料.rar
58.	http://115.com/file/angy3s1b#0058、AT89S52单片机数控直流电源原理图程序资料.rar
59.	http://115.com/file/be7fagka#0059、数控直流稳压电源完整论文资料.rar
60.	http://115.com/file/be7f52a9#0060、数控直流稳压电源proteus仿真+程序资料.rar
61.	http://115.com/file/be704w9p#0061、数字示波器的制作.rar
62.	http://115.com/file/dpz9y2es#0062、数字式调频收音机设计论文资料.rar
63.	http://115.com/file/e7nrhf24#0063、数字式秒表文档论文资料.rar
64.	http://115.com/file/be704elr#0064、数字万年历设计论文资料.rar
65.	http://115.com/file/c2hoba0f#0065、数字温度计设计论文资料.rar
66.	http://115.com/file/c2hobrum#0066、水库控制系统设计论文资料.rar
67.	http://115.com/file/be7049c7#0067、同步电机模型的MATLAB仿真论文资料.rar
68.	http://115.com/file/c2hobge8#0068、危险气体泄露报警器设计论文资料.rar
69.	http://115.com/file/dpz9yuzq#0069、微型打印机控制电路的设计论文资料.rar
70.	http://115.com/file/c2hobolh#0070、温度监控系统的设计论文资料.rar
71.	http://115.com/file/anga4611#0071、温度控制系统设计论文资料.rar
72.	http://115.com/file/c2hobfvv#0072、无线调频发射器的设计论文资料.rar
73.	http://115.com/file/dpz9y5r1#0073、无线视频监控系统设计毕业论文资料.rar
74.	http://115.com/file/be704719#0074、无线鼠标设计论文资料.rar
75.	http://115.com/file/e7nrh0in#0075、无线数据收发系统毕业论文资料.rar
76.	http://115.com/file/e7nrw9zq#0076、无线遥控盆腔治疗仪论文资料.rar
77.	http://115.com/file/c2hom5t0#0077、无线遥控设计资料.rar
78.	http://115.com/file/be703vni#0078、无线语音遥控智能车论文资料.rar
79.	http://115.com/file/be703a9a#0079、消防智能电动车设计与制作论文资料.rar
80.	http://115.com/file/e7nrwk95#0080、悬挂运动控制系统论文资料.rar
81.	http://115.com/file/angat1jw#0081、遥控系统的设计资料.rar
82.	http://115.com/file/be7035rp#0082、液体点滴速度监控装置资料.rar
83.	http://115.com/file/e7nrw02m#0083、一种智能频率计的设计与制作(AVR)proteus仿真+程序资料.rar
84.	http://115.com/file/angatpvt#0084、音频信号分析仪毕业设计论文资料.rar
85.	http://115.com/file/e7nrwvhn#0085、应用电子、继电线路设计论文资料.rar
86.	http://115.com/file/e7nrw53x#0086、用单片机实现温度远程显示论文资料.rar
87.	http://115.com/file/dpz920g2#0087、远程温度控制系统毕业设计论文资料.rar
88.	http://115.com/file/be70301u#0088、正弦信号发生器毕业设计论文资料.rar
89.	http://115.com/file/c2homn98#0089、智能风扇调速系统毕业设计资料.rar
90.	http://115.com/file/dpz926ho#0090、智能台灯设计资料.rar
91.	http://115.com/file/e7nrlzd5#0091、智能温度报警系统毕业设计资料.rar
92.	http://115.com/file/c2hoz3h9#0092、智能小区安防系统毕业设计论文资料.rar
93.	http://115.com/file/dpz95xyo#0093、智能型充电器的电源和显示的设计资料.rar
94.	http://115.com/file/c2hox4xm#0094、自动加料机控制系统毕业设计论文资料.rar
95.	http://115.com/file/c2hox41f#0095、自动水满报警器设计资料.rar
96.	http://115.com/file/e7nrlqoq#0096、自制实用多功能编程器资料.rar
97.	http://115.com/file/dpz955kb#0097、综述单片机控制系统的抗干扰设计资料.rar
98.	http://115.com/file/e7nrlqtp#0098、多功能数字时钟设计资料.rar
99.	http://115.com/file/c2hoxrc6#0099、基于汇编语言的数字时钟.rar
100.	http://115.com/file/c2hoxpts#0100、ENC28j60网络模块设计资料及其程序.rar
101.	http://115.com/file/be70sv1a#0101、ATMEGA16单片机寻迹小车程序及其原理图.rar
102.	http://115.com/file/angafiqg#0102、模块化多功能实训箱实验指导书pdf资料.rar
103.	http://115.com/file/e7nrlcsq#0103、0-30V_4A数控稳压电源资料.rar
104.	http://115.com/file/c2hoxmkh#0104、16×16点阵(滚动显示)PROTEUS仿真资料.rar
105.	http://115.com/file/e7nrlvwq#0105、1.5V~30V_3A可调式开关电源电路原理图+PCB资料.rar
106.	http://115.com/file/angadht1#0106、400HZ中频电源设计毕业论文资料.rar
107.	http://115.com/file/e7nrozm2#0107、32x8_LED点阵屏电子钟设计制作资料.rar
108.	http://115.com/file/dpz9fysb#0108、CDMA通信系统中的接入信道部分进行仿真与分析毕业论文资料.rar
109.	http://115.com/file/e7nroskx#0109、LC振荡器制作论文资料.rar
110.	http://115.com/file/dpz9fdpq#0110、led大屏幕点阵屏设计资料.rar
111.	http://115.com/file/c2horqc6#0111、MCGS数据采集单片机数据传送的设计资料.rar
112.	http://115.com/file/dpz9fpvz#0112、nrf905射频发送电路图和C程序源代码.rar
113.	http://115.com/file/dpz9f5tz#0113、PLC控制电梯的设计论文资料.rar
114.	http://115.com/file/dpz9f0l2#0114、PLL电路的研究及在信号产生中的应用论文资料.rar
115.	http://115.com/file/be70xzfi#0115、RCC电路间歇振荡的研究资料.rar
116.	http://115.com/file/dpz9f0ee#0116、八位数字密码锁设计资料.rar
117.	http://115.com/file/dpz9f8tu#0117、笔记本电脑的智能底座设计论文及其资料.rar
118.	http://115.com/file/angad6ww#0118、便捷式单片机实验开发装置毕业设计论文资料.rar
119.	http://115.com/file/e7nroek5#0119、变压器的智能绕线功能系统毕业设计论文资料.rar
120.	http://115.com/file/e7nrofg5#0120、步进电机调速控制系统设计资料.rar
121.	http://115.com/file/be7078br#0121、步行者机器人设计论文资料.rar
122.	http://115.com/file/be706gup#0122、采集与发射系统设计论文资料.rar
123.	http://115.com/file/dpz9zyw1#0123、采用MEC002A制作远程调频发射机论文资料.rar
124.	http://115.com/file/dpz9zlh2#0124、仓库温湿度的监测系统论文资料.rar
125.	http://115.com/file/dpz9zdlu#0125、常导超导磁悬浮演示试验装置的控制论文资料.rar
126.	http://115.com/file/angagjc1#0126、超级点阵,上位机发送单片机显示资料.rar
127.	http://115.com/file/angagn5w#0127、宠物定时喂食器设计论文资料.rar
128.	http://115.com/file/e7nrn835#0128、出租车计价器设计论文资料.rar
129.	http://115.com/file/c2hoheb6#0129、串行通信的电子密码锁论文资料.rar
130.	http://115.com/file/dpz9zkgz#0130、单工无线发射接收系统资料.rar
131.	http://115.com/file/c2hoh29v#0131、单工无线呼叫系统设计资料.rar
132.	http://115.com/file/be707veu#0132、单片机-485-PC串口通信proteus仿真+程序资料.rar
133.	http://115.com/file/be7072nr#0133、单片机_交通灯设计论文资料.rar
134.	http://115.com/file/e7nrnlo2#0134、单片机串行口与PC机通讯资料.rar
135.	http://115.com/file/be707753#0135、单片机串行通信发射机论文资料.rar
136.	http://115.com/file/be707qtv#0136、单片机定时闹钟论文资料.rar
137.	http://115.com/file/e7nrne9w#0137、单片机红外遥控系统设计论文资料.rar
138.	http://115.com/file/be707ud7#0138、单片机控制LED点阵显示器毕业设计论文资料.rar
139.	http://115.com/file/dpz9nxl1#0139、单片机控制交通灯论文资料.rar
140.	http://115.com/file/e7nr6w8w#0140、单片机控制语音芯片的录放音系统的设计资料.rar
141.	http://115.com/file/e7nr6o0n#0141、单片机扩展串行通信论文资料.rar
142.	http://115.com/file/angaq43g#0142、单片机数字时钟论文资料.rar
143.	http://115.com/file/c2hoh1rf#0143、单片机照明灯智能控制器资料.rar
144.	http://115.com/file/be70h6j3#0144、单片机自动控制交通灯及时间显示论文资料.rar
145.	http://115.com/file/be707t09#0145、低成本可调数显稳压电源(1.3V～25V)proteus仿真资料.rar
146.	http://115.com/file/be70hwi9#0146、点阵电子显示屏论文资料.rar
147.	http://115.com/file/dpz9zrxs#0147、电动智能小车设计论文资料.rar
148.	http://115.com/file/e7nr6na2#0148、电容充放电产生方波,再经积分器转成三角波,再经微分器转成方波proteus仿真资料.rar
149.	http://115.com/file/e7nr6bh5#0149、电压检测系统(含VB上位机)proteus仿真+程序资料.rar
150.	http://115.com/file/c2holx69#0150、电子秤proteus仿真+程序资料.rar
151.	http://115.com/file/c2hok708#0151、电子密码锁1602液晶显示资料.rar
152.	http://115.com/file/be70j09u#0152、电子式里程表设计论文资料.rar
153.	http://115.com/file/c2hok79v#0153、电子万年历设计与制作论文资料.rar
154.	http://115.com/file/c2ho8dzv#0154、多点温度检测系统设计论文资料.rar
155.	http://115.com/file/angawt05#0155、多点无线数据传输系统论文资料.rar
156.	http://115.com/file/c2ho8zth#0156、多功能电机控制器设计论文资料.rar
157.	http://115.com/file/dpz9bbxs#0157、多功能电子医药盒设计论文资料.rar
158.	http://115.com/file/e7nr4ngx#0158、新型消防车的研究毕业设计论文资料.rar
159.	http://115.com/file/dpz9bfsq#0159、PICICD2仿真器的原理图与PCB资料.rar
160.	http://115.com/file/angaw9ur#0160、多功能工业控制平台毕业设计论文资料.rar
161.	http://115.com/file/dpz9b7eb#0161、高频电路实训装置毕业设计论文资料.rar
162.	http://115.com/file/be709hd7#0162、光纤通信复用技术的研究毕业设计论文资料.rar
163.	http://115.com/file/c2hok0wm#0163、红外遥控电路设计论文资料.rar
164.	http://115.com/file/be70jyor#0164、基于51单片机的电力载波通信开关电路的制作资料.rar
165.	http://115.com/file/c2ho854s#0165、基于AT89S52单片机和DS1302的电子万年历设计资料.rar
166.	http://115.com/file/angacehs#0166、基于AVR单片机的汽车空调控制系统资料.rar
167.	http://115.com/file/be70mchv#0167、基于CPLD的三相多波形函数发生器论文资料.rar
168.	http://115.com/file/dpz9kw0o#0168、基于IGBT的变频电源设计论文资料.rar
169.	http://115.com/file/c2hoeyf9#0169、基于Mini51B的简易数字示波器资料.rar
170.	http://115.com/file/c2ho5p46#0170、基于PLL信号发生器的设计论文资料.rar
171.	http://115.com/file/c2ho5e2f#0171、基于单片机的数字电压表论文资料.rar
172.	http://115.com/file/dpz9tlfs#0172、基于单片机的指纹识别电子密码锁设计.rar
173.	http://115.com/file/c2ho5zd8#0173、基于单片机实现的俄罗斯方块游戏.rar
174.	http://115.com/file/be70o69u#0174、基于两个单片机串行通信的电子密码锁资料.rar
175.	http://115.com/file/angalmvg#0175、简易智能电动车论文资料.rar
176.	http://115.com/file/c2ho5rnm#0176、交通控制器设计论文资料.rar
177.	http://115.com/file/angalf85#0177、汽车尾灯控制电路设计资料.rar
178.	http://115.com/file/be70ohip#0178、智能健康监护仪的研究毕业设计论文资料.rar
179.	http://115.com/file/e7nrjgw4#0179、BY-5064步进电机驱动芯片资料大全.rar
180.	http://115.com/file/c2ho5h08#0180、THB6064H步进电机驱动芯片资料大全.rar
181.	http://115.com/file/be70vw6r#0181、THB6128_步进电机驱动芯片资料大全.rar
182.	http://115.com/file/c2ho6xbs#0182、THB7128_步进电机驱动芯片资料大全.rar
183.	http://115.com/file/c2ho6x76#0183、THB7128通用电子电路应用400例.rar
184.	http://115.com/file/c2hoca28#0184、C语言经典算法大全.rar
185.	http://115.com/file/e7nr11bn#0185、D转换中工频干扰的去除.rar
186.	http://115.com/file/anga8pk1#0186、MODBUS协议中文版.rar
187.	http://115.com/file/anga8yz1#0187、STM32中文参考手册.rar
188.	http://115.com/file/c2ho6q40#0188、基于DPA425的开关电源的设计与研制.rar
189.	http://115.com/file/anga81hs#0189、具有抗工频高二的多路高精度数据采集.rar
190.	http://115.com/file/be70nkhv#0190、硬件工程师手册_全.rar
191.	http://115.com/file/e7nrxd52#0191、EG8010_SPWM芯片数据手册.rar
192.	http://115.com/file/dpz9uatz#0193、51+单片机TCP-IP+协议栈ZLIP源码.rar
193.	http://115.com/file/dpz9aqps#0192、SMK1838遥控接收头.rar
194.	http://115.com/file/angapi0k#0194、电子焊接加工工艺标准PDF.rar
195.	http://115.com/file/dpz9aois#0195、ENC28j60程序及其资料.rar
196.	http://115.com/file/dpz9cf6e#0196、自制太阳能手机充电器设计资料.rar
197.	http://115.com/file/c2honhr8#0197、自动控制原理资料及其教学课件.rar
198.	http://115.com/file/e7nru3j2#0198、LM628私服驱动PDF资料.rar
199.	http://115.com/file/be705hfr#0199、电机控制专用集成电路+(PDF格式).rar
200.	http://115.com/file/be7005ka#0200、人体接近监测.rar
201.	http://115.com/file/e7nrd11x#0201、声光触摸控制延时照明灯电路.rar
202.	http://115.com/file/be70dgm9#0202、电压电阻转换模块.rar
203.	http://115.com/file/e7nrv7w4#0203、电子电路百科全书.rar
204.	http://115.com/file/be700zz9#0204、电子电路大全.rar
205.	http://115.com/file/dpz902g2#0205、电子设计开关电路.rar
206.	http://115.com/file/be70i3nv#0206、MSP430F149开发板常用经典例程资料.rar
207.	http://115.com/file/c2honjm8#0207、MSP430449系列16位超低功耗单片机原理与实践原理图例程资料.rar
208.	http://115.com/file/dpz91zdz#0208、MSP430单片机常用模块与综合系统实例精讲原理图例程资料.rar
209.	http://115.com/file/angakpgw#0209、MSP430单片机C语言应用程序设计实例精讲原理图例程资料.rar
210.	http://115.com/file/be705h8p#0210、抗干扰能力强的反射式传感器.rar
211.	http://115.com/file/angaolrb#0211、MSP430F449开发板应用例程资料.rar
212.	http://115.com/file/be70tv79#0212、MSP430F149系列单片机基础与实践原理图例程资料.rar
213.	http://115.com/file/dpz9rj2q#0213、DY_mini80E_51单片机开发板光盘资料.rar
214.	http://115.com/file/e7nrp9rq#0214、51单片机之开发板程序25例带原理图+源码.rar
215.	http://115.com/file/c2h74qh9#0215、AT89S52单片机入门教程30课+程序+说明.rar
216.	http://115.com/file/e7ndz8oq#0216、个人学习ATMEGA16单片机应用系统开发经典实例总结21例资料.rar
217.	http://115.com/file/ang6tvs1#0217、个人学习AT89S52单片机应用及其仿真总结46例资料.rar
218.	http://115.com/file/dpz9rs5z#0218、VB_上位机编写实例代码集带源码.rar
219.	http://115.com/file/c2h7z9uh#0219、PROTEUS软件及教程资料.rar
220.	http://115.com/file/e7ndsbrm#0220、PIC单片机PIC16F877例程包.rar
221.	http://115.com/file/ang6ti2t#0221、AT89S52单片机C语言应用100例.rar
222.	http://115.com/file/angau7yr#0222、FPGA例程包14例资料.rar
223.	http://115.com/file/e7nds374#0223、51单片机典型模块设计实例导航资料.rar
224.	http://115.com/file/dpzgx2lo#0224、个人学习ATMEGA8单片机应用及其仿真总结30例资料.rar
225.	http://115.com/file/c2h7msi9#0225、51单片机设计程序30例资料.rar
226.	http://115.com/file/e7nd89up#0226、AT89S51单片机实例35例汇编+C语言对照带电路图及说明.rar
227.	http://115.com/file/c2h7aez8#0227、常用元件的使用PROTEUS仿真.rar
228.	http://115.com/file/e7nd8jaq#0228、AT89S52单片机以及CPLD模块化多功能实训箱实验指导书.rar
229.	http://115.com/file/ang60kog#0229、51系列单片机竞赛设计实例程序44例PROTEUS仿真资料.rar
230.	http://115.com/file/ang6cj4r#0230、AVR系列单片机竞赛设计实例程序22例PROTEUS仿真资料.rar
231.	http://115.com/file/ang6cqyg#0231、STC89C52RC单片机学习例程书籍代码资料.rar
232.	http://115.com/file/c2h7e6qh#0232、例说STM32_ALIENTEK_MINISTM32_实验27例光盘资料.rar
233.	http://115.com/file/c2h7ec5m#0233、UC3843控制多路输出开关电源设计与实现.rar
234.	http://115.com/file/e7nd8puw#0234、1.8V_5.2_GHz_差分结构CMOS_低噪声放大器.rar
235.	http://115.com/file/e7ndjpsm#0235、40kHZ_超声波测距.rar
236.	http://115.com/file/dpzgkld1#0236、51单片机开发板实验板程序60例汇编及C语言资料带原理图.rar
237.	http://115.com/file/e7ndj0z2#0237、12864-12_LCD模块与射频SoC_nRF9E5的串行接口设计.rar
238.	http://115.com/file/e7ndj0r4#0238、145152频率合成器及其应用.rar
239.	http://115.com/file/c2h7e1wh#0239、1.8_GHz_CMOS_有源负载低噪声放大器.rar
240.	http://115.com/file/c2h7ebs9#0240、AD0809在数据采集中的应用.rar
241.	http://115.com/file/e7ndxcvp#0241、AT89C51单片机温度控制系统.rar
242.	http://115.com/file/be7qvnx9#0242、AT89C51单片机在无线数据传输中的应用.rar
243.	http://115.com/file/be7qv18p#0243、CMOS_混频器的设计技术.rar
244.	http://115.com/file/dpzguclz#0244、CMOS_斩波稳定放大器的分析与研究.rar
245.	http://115.com/file/be7qvd9a#0245、DDS-PLL组合跳频频率合成器.rar
246.	http://115.com/file/e7ndxy2m#0246、DDS波形合成技术中低通椭圆滤波器的设计.rar
247.	http://115.com/file/e7ndx015#0247、FM调制器(三知杯).rar
248.	http://115.com/file/e7ndxuew#0248、JDM_PIC编程器的原理与制作.rar
249.	http://115.com/file/ang6rksw#0249、MC1648两种改进型VCO的压控.rar
250.	http://115.com/file/e7ndx26x#0250、MC1648两种基本型VCO的压控特性.rar
251.	http://115.com/file/dpzgu1oq#0251、MC145163P型锁相频率合成器的原理与应用.rar
252.	http://115.com/file/e7ndxvkp#0252、MSP430超声波测距.rar
253.	http://115.com/file/be7qv0oi#0253、MSP430和nRF905的无线数传系统设计.rar
254.	http://115.com/file/be7qvq6v#0254、nRF905的无线数据传输系统.rar
255.	http://115.com/file/dpnqlx42#0255、N阶多环反馈低通滤波器的系统设计.rar
256.	http://115.com/file/dpnq2mgz#0256、PDP_中的模拟视频数字化电路设计.rar
257.	http://115.com/file/anqs9j05#0257、PWM开关调整器及其应用电路.rar
258.	http://115.com/file/c2l94m18#0258、RCD箝位反激变换器的设计与实现.rar
259.	http://115.com/file/anqs9fmk#0259、RFID产品几个技术问题的说明.rar
260.	http://115.com/file/e76qfws2#0260、S51下载线的制作——单片机实用技术探讨.rar
261.	http://115.com/file/dpnql7j2#0261、SL-DIY02-3：单片机创新开发与机器人制作的核心控制板.rar
262.	http://115.com/file/c2l94b2f#0262、TEA1504开关电源低功耗控制IC.rar
263.	http://115.com/file/e76qfqvn#0263、TL494脉宽调制控制电路.rar
264.	http://115.com/file/e76qf3m4#0264、USB接口设计.rar
265.	http://115.com/file/e76qfn2q#0265、步进电机的单片机控制.rar
266.	http://115.com/file/behplsgv#0266、采用PROG-110制作的打铃器电路.rar
267.	http://115.com/file/dpnqll6q#0267、超声波测距.rar
268.	http://115.com/file/behpl63a#0268、超声波在超声波测距中的应用.rar
269.	http://115.com/file/e76qfonm#0269、程控信号发生器的设计.rar
270.	http://115.com/file/behp3g4v#0270、出租车计价器论文.rar
271.	http://115.com/file/be7qvy1u#0271、大功率开关电源中功率MOSFET的驱动技术.rar
272.	http://115.com/file/dpzgu8ps#0272、单片机大屏幕温湿度测控电路.rar
273.	http://115.com/file/e7ndxgs4#0273、单片机控制红外线防盗报警器.rar
274.	http://115.com/file/e7ndxt85#0274、单片机控制机械手臂的设计与制作.rar
275.	http://115.com/file/e7nd1ztn#0275、单片机是怎样在液晶上显示字符的.rar
276.	http://115.com/file/dpzgjy02#0276、单片机学习机及编程器的设计与制作.rar
277.	http://115.com/file/dpzgj2ue#0277、单片机在超声波测距中的应用.rar
278.	http://115.com/file/c2h7c4hv#0278、单相Boost功率因数校正电路优化及仿真.rar
279.	http://115.com/file/ang68jtw#0279、单相相位触发器TC782A的设计及应用.rar
280.	http://115.com/file/e7nd1smq#0280、单向无线数据传输系统的设计.rar
281.	http://115.com/file/c2h7c9ks#0281、低功耗10Gbs_CMOS_1∶_4_分接器.rar
282.	http://115.com/file/c2h7crqm#0282、电容阵列开关时序优化在A_D_转换器中的应用.rar
283.	http://115.com/file/c2h7cpyh#0283、电压控制_LC_振荡器.rar
284.	http://115.com/file/dpzgjx7u#0284、电压控制振荡器(2004_年吉林省大学生电子设计竞赛).rar
285.	http://115.com/file/be7qn6mu#0285、电源的分类及知识.rar
286.	http://115.com/file/e7nd1ys2#0286、电子学习资料[适合初学者].rar
287.	http://115.com/file/e7nd1ya4#0287、调幅发射机电路的设计.rar
288.	http://115.com/file/e7nd1kyq#0288、多参数可调扩频信号源的设计.rar
289.	http://115.com/file/ang68yur#0289、多相位低相位噪声5GHz_压控振荡器的设计.rar
290.	http://115.com/file/be7qnu7u#0290、高线性度上变频混频器设计.rar
291.	http://115.com/file/e7nd1a2q#0291、反激式电源中电磁干扰及其抑制.rar
292.	http://115.com/file/e7nd1rvn#0292、改进的并行积分算法低通滤波器的FPGA设计.rar
293.	http://115.com/file/ang68v1w#0293、高频试验箱资料.rar
294.	http://115.com/file/be7qntjr#0294、高清电视音频解码的定点DSP_实现.rar
295.	http://115.com/file/be7qnrsi#0295、反激式DC—DC电源的集成化研究.rar
296.	http://115.com/file/c2h7ibrf#0296、高性能DDS芯片AD9850的数字调制系统.rar
297.	http://115.com/file/be7q1309#0297、关于单端反激变换器的变压器设计.rar
298.	http://115.com/file/e7ndcz9w#0298、焊后热处理温控装置.rar
299.	http://115.com/file/ang68ymk#0299、获奖作品FM调制器.rar
300.	http://115.com/file/be7qnrtv#0300、基才酒店无线呼叫系统设计.rar
301.	http://115.com/file/ang623v5#0301、基于8051单片机制作多光束激光围栏.rar
302.	http://115.com/file/c2h7wv28#0302、基于8051的CF卡文件系统的实现.rar
303.	http://115.com/file/dpzg4ciq#0303、基于145152-2芯片的频率合成器的设计.rar
304.	http://115.com/file/c2h7w7h8#0304、基于AD9850_DDS_芯片的宽频信号源.rar
305.	http://115.com/file/ang62v2k#0305、基于AD9850的高频信号源设计.rar
306.	http://115.com/file/dpzg417z#0306、基于AD9850的正弦信号发生器.rar
307.	http://115.com/file/c2h7wtsf#0307、基于DDS的雷达中频信号源设计与实现.rar
308.	http://115.com/file/e7nd0mwq#0308、基于DDS技术的MSK调制.rar
309.	http://115.com/file/c2h7wqa6#0309、基于FPGA的四阶IIR数字滤波器.rar
310.	http://115.com/file/dpzg49us#0310、基于FPGA的小功率立体声发射机的设计.rar
311.	http://115.com/file/dpzg4r5z#0311、基于MSP430和nRF905的多点无线通讯模块.rar
312.	http://115.com/file/e7nd0pym#0312、基于nRF9E5的无线光标控制系统.rar
313.	http://115.com/file/e7nd0tj2#0313、基于nRF905的无线数据多点跳传通信系统.rar
314.	http://115.com/file/dpzg48wu#0314、基于nRF905射频收发模块的设计.rar
315.	http://115.com/file/e7nd2hzq#0315、基于nRF905芯片的无线传输设计与实现.rar
316.	http://115.com/file/c2h7nxzv#0316、基于nRF905芯片的无线呼号系统设计与实现.rar
317.	http://115.com/file/e7ndus7m#0317、基于nRF2401的无线数据传输系统.rar
318.	http://115.com/file/be7q5sk9#0318、基于PLC的锅炉内胆水温控制系统设计.rar
319.	http://115.com/file/e7ndub8p#0319、基于UC3843的反激式开关电源反馈电路的设计.rar
320.	http://115.com/file/be7q5x2i#0320、基于单片机AT89C51的节拍器的设计与制作.rar
321.	http://115.com/file/c2h7n9g9#0321、基于单片机的超声波测距系统.rar
322.	http://115.com/file/e7nduotx#0322、基于单片机的红外通讯设计.rar
323.	http://115.com/file/ang63we5#0323、基于单片机的频率计设计.rar
324.	http://115.com/file/be7q5csi#0324、基于单片机的数字电子钟的设计与制作.rar
325.	http://115.com/file/c2h7n2f8#0325、基于单片机的数字式电子钟的设计与制作.rar
326.	http://115.com/file/e7ndu7w2#0326、基于电流控制传送器的电可调梯形滤波器.rar
327.	http://115.com/file/e7ndu8gx#0327、基于射频收发芯片nRF903的无线数传模块设计.rar
328.	http://115.com/file/ang63c7g#0328、基于阶梯阻抗发夹谐振器的小型低通滤波器.rar
329.	http://115.com/file/ang63g8t#0329、基于电位计实现自行车机器人的拟人智能控制.rar
330.	http://115.com/file/c2h7nlhf#0330、基于锁相频率合成器的电压控制LC振荡器.rar
331.	http://115.com/file/e7ndukp2#0331、基于无线传输技术的多路温度数据采集系统设计.rar
332.	http://115.com/file/e7ndu554#0332、基于准浮栅技术的超低压运放及滤波器设计.rar
333.	http://115.com/file/be7q5fvp#0333、简单实用的通用单片机控制板.rar
334.	http://115.com/file/dpzgcr6b#0334、降压／升压DC—DC转换器四开关控制方法.rar
335.	http://115.com/file/ang63ai5#0335、开关电源原理及各功能电路详解.rar
336.	http://115.com/file/be7qz3h3#0336、可提高Buck型DC／DC转换器带载能力的斜坡补偿设计.rar
337.	http://115.com/file/dpzg6l2e#0337、空调室温控制的质量与节能.rar
338.	http://115.com/file/dpzgcggu#0338、宽频带数控频率合成器.rar
339.	http://115.com/file/c2h7nfwh#0339、宽频鱼雷自导目标回波模拟仿真.rar
340.	http://115.com/file/c2h7n3p0#0340、利用MC145152-2设计吞脉冲锁相频率合成器.rar
341.	http://115.com/file/ang6zhyr#0341、模糊免疫PID在主汽温控制系统中的应用.rar
342.	http://115.com/file/be7q5rmp#0342、浅谈开关电源的过流保护电路.rar
343.	http://115.com/file/ang63xxb#0343、嵌入式POL_DC／DC转换器设计.rar
344.	http://115.com/file/c2h7n1zf#0344、射频SoC_nRF9E5及无线数据传输系统的实现.rar
345.	http://115.com/file/dpzg6yjz#0345、射频模块nRF9E5在污水数据监测系统中的应用.rar
346.	http://115.com/file/be7qzs9p#0346、深井泵自动控制器.rar
347.	http://115.com/file/dpzg6q5o#0347、使用PWM得到精密的输出电压.rar
348.	http://115.com/file/dpzg6qr1#0348、使用单片机制作的毫欧表.rar
349.	http://115.com/file/be7qzxo7#0349、鼠标：罗技V450激光无线鼠标.rar
350.	http://115.com/file/ang6zgh1#0350、数字化会议系统的分析与设计.rar
351.	http://115.com/file/c2h7g229#0351、谈开关电源的指标及检测.rar
352.	http://115.com/file/dpzg6k72#0352、通恒电子-开关电源的电路设计.rar
353.	http://115.com/file/be7qzoia#0353、同步整流DC／DC升压芯片中驱动电路的设计.rar
354.	http://115.com/file/dpzg6w31#0354、下载线＋接口电路——制作实用的单片机编程器.rar
355.	http://115.com/file/be7qzh19#0355、无线呼叫系统的设计.rar
356.	http://115.com/file/be7qz663#0356、无线你我他——认识红外线接口.rar
357.	http://115.com/file/ang6zrrw#0357、无线收发芯片nRF905的原理及其在单片机系统中的应用.rar
358.	http://115.com/file/c2h7gk40#0358、无线数传模块及其应用.rar
359.	http://115.com/file/dpzg6koe#0359、无线数据传输系统的设计与实现.rar
360.	http://115.com/file/c2h7gch9#0360、无线智能报警器的设计.rar
361.	http://115.com/file/ang6zzzb#0361、五种PWM反馈控制模式研究.rar
362.	http://115.com/file/ang6z7cw#0362、椭圆滤波器边带优化设计方法研究.rar
363.	http://115.com/file/dpzg61fq#0363、显示测试系统数字I_O_口控制的设计与实现.rar
364.	http://115.com/file/c2h7gjvv#0364、小型机载计算机电源的设计与研究.rar
365.	http://115.com/file/ang6zxww#0365、新潮电风扇专用集成电路应用大观.rar
366.	http://115.com/file/e7ndyr1x#0366、新型彩色LCOS_头盔微显示器光学系统.rar
367.	http://115.com/file/dpzg6oh1#0367、新型单片开关电源的设计.rar
368.	http://115.com/file/dpzg6rqq#0368、新型集成电路简化嵌入式POL_DC／DC转换器设计.rar
369.	http://115.com/file/ang6z6qg#0369、新型开放式液滴驱动芯片.rar
370.	http://115.com/file/be7qzul3#0370、新型开关芯片TOP224P在开关电源中的应用.rar
371.	http://115.com/file/dpzg6mtu#0371、新一代单片PFC+PWM控制器.rar
372.	http://115.com/file/e7ndkz3n#0372、一款新颖的插座式自动温控器.rar
373.	http://115.com/file/be7qzffi#0373、一种低功耗的锂离子电池保护电路的设计.rar
374.	http://115.com/file/e7ndkhhw#0374、一种点对多点无线数据传输系统的设计.rar
375.	http://115.com/file/e7ndymmm#0375、一种基于AT89C51的433MHz无线呼叫系统的设计.rar
376.	http://115.com/file/e7ndk0ew#0376、一种基于DDS芯片AD9850的信号源.rar
377.	http://115.com/file/c2h7qn8v#0377、一种基于nRF9E5的无线监测局域网系统的设计.rar
378.	http://115.com/file/ang67bb1#0378、一种精准的升压型DC—DC转换器自调节斜坡补偿电路.rar
379.	http://115.com/file/e7ndkypq#0379、一种无线多点远程监控系统的设计与实现.rar
380.	http://115.com/file/be7qd0q3#0380、一种无线数据传输方案及实现.rar
381.	http://115.com/file/e7ndkes4#0381、一种新的适于集成的模拟温度补偿晶体振荡器的设计.rar
382.	http://115.com/file/e7ndk595#0382、一种新颖的消除DC-DC中斜坡补偿影响的电路结构.rar
383.	http://115.com/file/e7ndkm72#0383、一种用单片机制作的高频正弦波逆变器.rar
384.	http://115.com/file/ang67x35#0384、一种用方波驱动鼠标光标移动的鼠标电路的设计.rar
385.	http://115.com/file/ang67zsw#0385、应用单片机制作可调超低频方波信号源及程序设计.rar
386.	http://115.com/file/e7ndkv3x#0386、用145152实现具有四模数.rar
387.	http://115.com/file/ang675mr#0387、用AD9850激励的锁相环频率合成器.rar
388.	http://115.com/file/dpzghgae#0388、用AT89C51制作四位数字转速测量计.rar
389.	http://115.com/file/e7ndkrhn#0389、用AVR单片机制作廉价高性能的多路伺服电机控制器.rar
390.	http://115.com/file/ang67o0k#0390、用单片机和点阵图型LCD显示屏制作流动图像.rar
391.	http://115.com/file/be7qipd3#0391、用单片机控制的出租车计价器.rar
392.	http://115.com/file/dpzg155u#0392、用单片机设计的测速表.rar
393.	http://115.com/file/c2h7sxyh#0393、用单片机制作的定时开关控制器.rar
394.	http://115.com/file/e7nd5oo2#0394、用单片机制作的直流稳压可调电源.rar
395.	http://115.com/file/dpzg1d9q#0395、用单片机制作电池容量测试仪.rar
396.	http://115.com/file/c2h7sa08#0396、用单片机制作多功能水位自动控制器.rar
397.	http://115.com/file/be7qimip#0397、用单片机制作多路输入电压表.rar
398.	http://115.com/file/ang6kll5#0398、用单片机制作温度计.rar
399.	http://115.com/file/be7qi99u#0399、用单片机制作意大利MEZZERA卷染机计数器.rar
400.	http://115.com/file/be7qij53#0400、用微机作单片机调试工具.rar
401.	http://115.com/file/be7qi2mu#0401、用移位寄存器制作步进电机驱动电路.rar
402.	http://115.com/file/be7qi689#0402、油田区域网无线综合测控系统软件模块的设计.rar
403.	http://115.com/file/ang6kg85#0403、有效负载电阻——评估DC／DC转换器效率的新方案.rar
404.	http://115.com/file/c2h7s2jh#0404、语音文字短信无线发射机设计.rar
405.	http://115.com/file/e7nd58q2#0405、增量式PID控制在温控系统中的应用.rar
406.	http://115.com/file/be7qibeu#0406、制作51和CPLD通用下载线.rar
407.	http://115.com/file/be7qiawa#0407、制作MCS-51串行HEX调试器.rar
408.	http://115.com/file/c2h7sv18#0408、智能化自寻迹程控车模.rar
409.	http://115.com/file/c2h7sq36#0409、智能家用电热水器控制器.rar
410.	http://115.com/file/c2h7sohf#0410、自动检测80C51串行通讯的波特率.rar
411.	http://115.com/file/be7qf74i#0411、自动温控系统在客车采暖中的应用.rar
412.	http://115.com/file/dpzg10j2#0412、自动洗手器与自动干手器电路.rar
413.	http://115.com/file/dpzg9qkb#0413、单片机原理与应用及C51程序设计课件电子教案.rar
414.	http://115.com/file/c2h7ob7s#0414、《单片机原理与应用》（金龙国）电子教案.rar
415.	http://115.com/file/be7qiuap#0415、数字电子系统设计（CPLD）实验指导书资料.rar
416.	http://115.com/file/c2h7s1y6#0416、单片机的C语言应用程序设计电子教案.rar
417.	http://115.com/file/dpzg110z#0417、C语言程序设计及应用实例.rar
418.	http://115.com/file/be7qfjwu#0418、单片机C语言彻底应用实验指导书.rar
419.	http://115.com/file/e7ndrboq#0419、单片机C语言程序设计实验指导书.rar
420.	http://115.com/file/be7qid2i#0420、单片机常用芯片和器件手册.rar
421.	http://115.com/file/behstnqi#0421、单片机应用技术选编.rar
422.	http://115.com/file/e76lgxnq#0422、AT89S52语言常用程序资料.rar
423.	http://115.com/file/c2lxycb0#0423、单片机实验板使用与C语言源程序.rar
424.	http://115.com/file/c2lxywkh#0424、AT89S51实践与实验教程.rar
425.	http://115.com/file/dpn5rhmo#0425、8051单片机C语言编程入门指导书.rar
426.	http://115.com/file/c2lxyge8#0426、100个经典C语言程序资料.rar
427.	http://115.com/file/c2lxytc6#0427、单片机典型模块设计实例.rar
428.	http://115.com/file/c2lxyolh#0428、C语言趣味程序百例精解.rar
429.	http://115.com/file/e76lge44#0429、30A四路继电器控制板DXP资料.rar
430.	http://115.com/file/behstquu#0430、128x64液晶接线模DXP资料.rar
431.	http://115.com/file/anqfoo7k#0431、555振荡器DXP资料及其相关资料.rar
432.	http://115.com/file/behsrvni#0432、AT89S52_AVR入门与提高DXP资料及其相关资料.rar
433.	http://115.com/file/c2lx0zns#0433、AT89S52AVR入门与提高DXP资料及其相关资料.rar
434.	http://115.com/file/e76lp9zq#0434、AT89S52S双L298驱动控制器DXP资料.rar
435.	http://115.com/file/e76lt0a4#0435、AT89S52电机控制器DXP资料及其相关资料.rar
436.	http://115.com/file/dpn5rc6s#0436、AT89S52多功能板DXP资料及其相关资料.rar
437.	http://115.com/file/behsg03a#0437、AT89S52继电器工控板DXP资料.rar
438.	http://115.com/file/c2lx3of8#0438、AT89S52精简开发板DXP资料及其相关资料.rar
439.	http://115.com/file/anqfop2r#0439、AT89S52最小系统板DXP资料及其相关资料.rar
440.	http://115.com/file/dpnq29lu#0440、ATMEGA8-ATMEGA16(贴片)DXP资料.rar
441.	http://115.com/file/dpzgeuaq#0441、ATMEGA8L最小系统板DXP及其相关资料.rar
442.	http://115.com/file/e7ndd9xm#0442、ATMEGA16L最小系统DXP资料及其相关资料.rar
443.	http://115.com/file/dpzggwco#0443、ATMEGA16单片机模块DXP资料.rar
444.	http://115.com/file/dpzggzae#0444、ATMEGA128L贴片转直插板DXP资料及其相关资料.rar
445.	http://115.com/file/ang66s75#0445、ATMEGA128精简开发板DXP资料及其相关资料.rar
446.	http://115.com/file/c2h772z8#0446、ATMEGA848-S52-贴片DXP资料.rar
447.	http://115.com/file/c2h7fi4s#0447、AVR_M8转S52板DXP资料及其相关资料.rar
448.	http://115.com/file/ang6123g#0448、AVR_M16L转S52板DXP资料及其相关资料.rar
449.	http://115.com/file/c2h77x98#0449、AVR精简学习板DXP资料及其相关资料.rar
450.	http://115.com/file/ang61pvr#0450、AVR最小系统板DXP资料及其相关资料.rar
451.	http://115.com/file/dpzgegw2#0451、CP2102_USB转串口DXP资料及其相关资料.rar
452.	http://115.com/file/e7ndmr0n#0452、l297_l298组合驱动步进电机DXP资料及其相关资料.rar
453.	http://115.com/file/be7quuwu#0453、L298N电机驱动器_共地DXP资料及其相关资料.rar
454.	http://115.com/file/c2h7f1e9#0454、L297_L298驱动器DXP资料及其相关资料.rar
455.	http://115.com/file/ang6vjok#0455、L298N直流步进两用驱动器DXP资料及其相关资料.rar
456.	http://115.com/file/be7qyhlr#0456、L6203直流电机驱动器DXP资料.rar
457.	http://115.com/file/dpzg3v1s#0457、LCD1602接线模块DXP资料.rar
458.	http://115.com/file/e7ndecin#0458、LED节能灯电路模块DXP资料及其相关资料.rar
459.	http://115.com/file/ang6vqvk#0459、LM317电压可调模块DXP资料及其相关资料.rar
460.	http://115.com/file/be7qybku#0460、LM393声音传感器DXP资料及其相关资料.rar
461.	http://115.com/file/dpzg32sb#0461、LMD18200直流电机驱动器DXP资料及其相关资料.rar
462.	http://115.com/file/e7ndmgbp#0462、LMDJ18200直流电机驱动器DXP资料及其相关资料.rar
463.	http://115.com/file/e7nde4bw#0463、mega8_mega16DXP资料.rar
464.	http://115.com/file/ang6vr6k#0464、MPS430F149单片机精简开发板DXP资料.rar
465.	http://115.com/file/e7nde2y2#0465、MPS430F149单片机精简开发板DXP资料及其相关资料.rar
466.	http://115.com/file/c2h70wx0#0466、MSP430贴片转直插板DXP资料及其相关资料.rar
467.	http://115.com/file/ang65b7r#0467、PIC精简开发板DXP资料及其相关资料.rar
468.	http://115.com/file/ang652ok#0468、RS232转485通讯模块DX资料.rar
469.	http://115.com/file/ang653lg#0469、S52多功能板DXP资料及其相关资料.rar
470.	http://115.com/file/ang657ab#0470、LM2576_稳压模块DXP资料及其相关资料.rar
471.	http://115.com/file/dpzgoevz#0471、S52最小系统_（黑色）DXP资料及其相关资料.rar
472.	http://115.com/file/c2h703b0#0472、S52精简开发板DXP资料及其相关资料.rar
473.	http://115.com/file/dpzgo3oe#0473、STK672-080电机驱动DXP资料及其相关资料.rar
474.	http://115.com/file/c2h73pc6#0474、TCS230颜色识别DXP资料及其相关资料.rar
475.	http://115.com/file/e7ndthin#0475、THB7128步进电机驱动器DXP资料.rar
476.	http://115.com/file/c2h734gv#0476、USB下载线DXP资料及其相关资料.rar
477.	http://115.com/file/e7ndtqv5#0477、USB下载线—new（黑）DXP资料及其相关资料.rar
478.	http://115.com/file/dpzgo6d2#0478、八入八出继电器工控板DXP资料.rar
479.	http://115.com/file/be7qgwm9#0479、八位数码管显示板DXP资料及其相关资料.rar
480.	http://115.com/file/ang6uno5#0480、变压器电源模块DXP资料及其相关资料.rar
481.	http://115.com/file/e7nes0x4#0481、变压器双12伏双5伏电源板DXP资料及其相关资料.rar
482.	http://115.com/file/dpz3iszq#0482、超声波DXP资料及其相关资料.rar
483.	http://115.com/file/dpz3ia1s#0483、超声波测距DXP资料.rar
484.	http://115.com/file/be7yw5qi#0484、传感器控制继电器模块DXP资料.rar
485.	http://115.com/file/dpz3i64u#0485、大功率步进电机驱动器DXP资料及其相关资料.rar
486.	http://115.com/file/be7ywqxp#0486、单红外LM393DXP资料及其相关资料.rar
487.	http://115.com/file/e7nesmv5#0487、单片机USB下载线_直插mega8DXP资料.rar
488.	http://115.com/file/e7nesvy2#0488、定时开关模块DXP及其相关资料.rar
489.	http://115.com/file/c2hjz0vv#0489、对射式传感器—计数传感器DXP资料及其相关资料.rar
490.	http://115.com/file/be7ys8pp#0490、对射式深度红外传感器DXP资料及其相关资料.rar
491.	http://115.com/file/angvftlr#0491、仿PLC控制器DXP资料及其相关资料.rar
492.	http://115.com/file/be7ywynv#0492、加速度传感器DXP资料及其相关资料.rar
493.	http://115.com/file/dpz3irl2#0493、精简USB下载线DXP资料.rar
494.	http://115.com/file/c2hjx4uh#0494、矩阵键盘DXP资料及其相关资料.rar
495.	http://115.com/file/dpz3iree#0495、抗干扰红外发射接收一体DXP资料及其相关资料.rar
496.	http://115.com/file/angvsrsb#0496、两位数码管显示模块DXP资料.rar
497.	http://115.com/file/e7neqxp4#0497、凌阳串口下载线DXP资料及其相关资料.rar
498.	http://115.com/file/c2hj9nwm#0498、凌阳单片机最小系统板DXP资料及其相关资料.rar
499.	http://115.com/file/e7neq2dn#0499、频率PWM控制均可调模块DXP资料及其相关资料.rar
500.	http://115.com/file/be7ypdwa#0500、三闪灯DXP资料.rar
501.	http://115.com/file/e7neq15q#0501、声光双控电路DXP资料及其相关资料.rar
502.	http://115.com/file/dpz3qh8b#0502、双红外LM393DXP资料及其相关资料.rar
503.	http://115.com/file/be7ypqf7#0503、双闪灯DXP资料.rar
504.	http://115.com/file/angvs18t#0504、四路继电器控制模块DXP资料.rar
505.	http://115.com/file/e7neqc9p#0505、四路输出继电器工控板DXP资料.rar
506.	http://115.com/file/be7ypzeu#0506、万能贴片转直插板_四边DXP资料.rar
507.	http://115.com/file/angvsy05#0507、语音麦克输入模块DXP资料.rar
508.	http://115.com/file/e7neq035#0508、直流电机专用驱动器DXP资料及其相关资料.rar
509.	http://115.com/file/e7neqrb5#0509、智能颜色传感器模块DXP及其相关资料.rar
510.	http://115.com/file/c2hj9jhf#0510、PIC单片机下载线原理图.rar
511.	http://115.com/file/angvdmft#0511、PIC单片机原理.rar
512.	http://115.com/file/c2hjrp1f#0512、田老师的PIC单片机教案.rar
513.	http://115.com/file/e7neo4fw#0513、手把手教你学单片机PDF资料.rar
514.	http://115.com/file/c2hju08f#0514、电子学习数字电路教案.rar
515.	http://115.com/file/dpz3f3go#0515、电子学习模拟电路教案.rar
516.	http://115.com/file/e7neovbn#0516、单片机原理与应用教案.rar
517.	http://115.com/file/angvqjt1#0517、RC降压原理.rar
518.	http://115.com/file/e7ne6f6w#0518、常用集成时序逻辑器件及应用.rar
519.	http://115.com/file/angvdicw#0519、第三届“飞思卡尔”杯全国大学生北京科技大学光电一队技术报告.rar
520.	http://115.com/file/e7neo9qq#0520、电感线圈的简易制作.rar
521.	http://115.com/file/c2hjrqns#0521、电工基础－重要.rar
522.	http://115.com/file/e7ne6sm2#0522、电机控制专用集成电路+(PDF格式).rar
523.	http://115.com/file/c2hjlt30#0523、电压电阻转换模块.rar
524.	http://115.com/file/e7neo4mm#0524、电子基础实训的几个实验.rar
525.	http://115.com/file/e7neo58x#0525、电子元件基础教程.rar
526.	http://115.com/file/c2hj8bo8#0526、跟我学模拟电子电路.rar
527.	http://115.com/file/be7y9lhr#0527、跟我学数字电子技术.rar
528.	http://115.com/file/e7ne4wcq#0528、开关电路大全.rar
529.	http://115.com/file/dpz3bf1b#0529、人体接近监测.rar
530.	http://115.com/file/c2hj8u69#0530、手机充电器电路原理图及充电器的安全标准.rar
531.	http://115.com/file/dpz3bny1#0531、数显实验电源的制作.rar
532.	http://115.com/file/dpz3bt7o#0532、数字放大器.rar
533.	http://115.com/file/be7y9vfv#0533、无线电基础知识.rar
534.	http://115.com/file/e7ne4c6w#0534、循环彩灯.rar
535.	http://115.com/file/e7ne4lun#0535、运放的应用(摘自OHM丛书).rar
536.	http://115.com/file/c2hj8cch#0536、智能电力线载波电话系统.rar
537.	http://115.com/file/dpz3bqv2#0537、自制太阳能手机充电器.rar
538.	http://115.com/file/dpz3bzdo#0538、51单片机C语言编程实验指导书.rar
539.	http://115.com/file/dpz3bssb#0539、《高频电子线路》实验指导书.rar
540.	http://115.com/file/c2hj8gys#0540、《汽车底盘电子技术》实验指导书.rar
541.	http://115.com/file/anq4fbas#0541、《数字电子技术》实验指导书.rar
542.	http://115.com/file/beh4sa89#0542、LC与晶体振荡器实验.rar
543.	http://115.com/file/dpny56n1#0543、SPCE061A单片机教材书及开发板资料光盘.rar
544.	http://115.com/file/anq4sl3g#0544、SPCE061A单片机实验指导书.rar
545.	http://115.com/file/c2lb9s1v#0545、STC89C52RC单片机实验板使用手册指导书.rar
546.	http://115.com/file/anq4s7et#0546、单片机实验板使用与C语言源程序.rar
547.	http://115.com/file/anq4fo2t#0547、单片机语言C51应用实战集锦.rar
548.	http://115.com/file/c2lbxqjh#0548、单片机原理与应用实验指导书.rar
549.	http://115.com/file/beh424dv#0549、单片及的综合技术应用.rar
550.	http://115.com/file/beh4pchr#0550、电磁波实验指导书.rar
551.	http://115.com/file/dpnyq64z#0551、电力电子实验指导书.rar
552.	http://115.com/file/beh4p91p#0552、电子实验指导丛书.rar
553.	http://115.com/file/anq4mmvk#0553、高频电子线路实验.rar
554.	http://115.com/file/e76hb652#0554、高频电子线路实验指导书.rar
555.	http://115.com/file/e76hlv4m#0555、高频电子线路实验指导书（电子科技大学中山学院）.rar
556.	http://115.com/file/c2lbiqp0#0556、计数器电路应用于自行车.rar
557.	http://115.com/file/dpnya10u#0557、交通灯控制器设计.rar
558.	http://115.com/file/e76hckt5#0558、世界十大设计团队的设计策略.rar
559.	http://115.com/file/e76hcr6w#0559、数字电子技术基础实验指导书.rar
560.	http://115.com/file/dpnyag2e#0560、ATMEGA16单片机班培训实例.rar
561.	http://115.com/file/c2lbifv8#0561、通信原理实验指导书.rar
562.	http://115.com/file/beh4bllr#0562、微机原理及应用实验指导书.rar
563.	http://115.com/file/beh41qua#0563、信号与系统实验系统.rar
564.	http://115.com/file/dpny4l31#0564、压电式压力传感器的静态标定实验指导书.rar
565.	http://115.com/file/dpnyaotz#0565、AVR经典教程.rar
566.	http://115.com/file/c2lbwxah#0566、AVR系列单片机c语言编程与应用实例.rar
567.	http://115.com/file/dpny4n4u#0567、AVR单片机教程0-10.rar
568.	http://115.com/file/c2lbij89#0568、给初学AT89S52单片机的40个实验.rar
569.	http://115.com/file/beh41kti#0569、AVR单片机＋CPLD体系在测频电路中的应用.rar
570.	http://115.com/file/dpnyamd2#0570、AVR单片机Atmega128在FPGA配置中的运用.rar
571.	http://115.com/file/anqtnukb#0571、AVR单片机的SPI串行通信的应用.rar
572.	http://115.com/file/c2lmkd68#0572、AVR单片机例程.rar
573.	http://115.com/file/dpn2wyzq#0573、AVR高速嵌入式单片机原理与应用（修订版）.rar
574.	http://115.com/file/anqtefx1#0574、mega的熔丝位设置.rar
575.	http://115.com/file/e76wisin#0575、串口制作.rar
576.	http://115.com/file/anqtedds#0576、单片机开发工具DIY_AVR单片机并口下载线的制作.rar
577.	http://115.com/file/c2lmkuts#0577、跟我做AVR单片机实验_用单片机做数字频率计.rar
578.	http://115.com/file/beh3jss3#0578、基于AVR—AT90S8515的多通道智能大厦自动抄表系统.rar
579.	http://115.com/file/e76win1x#0579、基于AVR单片机的CAN总线设计.rar
580.	http://115.com/file/anqteszb#0580、基于AVR单片机的步进电机控制.rar
581.	http://115.com/file/dpn2wwss#0581、四路12V30A无线遥控控制板DXP资料.rar
582.	http://115.com/file/e76wi444#0582、ATmega8原理与应用手册.rar
583.	http://115.com/file/anqte8a1#0583、基于AVR单片机的串口通信.rar
584.	http://115.com/file/beh3j34r#0584、基于AVR单片机的矿用智能型电机保护器的研制.rar
585.	http://115.com/file/dpn2wfmo#0585、基于AVR单片机的三相正弦波变频电源设计.rar
586.	http://115.com/file/anqtexfg#0586、基于AVR单片机的远程控制系统的研究.rar
587.	http://115.com/file/e76wieix#0587、基于AVR单片机的智能蓄电池巡检系统.rar
588.	http://115.com/file/e76wiagw#0588、嵌入式C编程与Atmel_AVR.rar
589.	http://115.com/file/c2lmkygf#0589、使用并口的AVR单片机串行ISP.rar
590.	http://115.com/file/anqtww35#0590、单片机课件.rar
591.	http://115.com/file/beh39jkp#0591、数字电子实验指导书.rar
592.	http://115.com/file/e76w4cmq#0592、AVR常用单片机芯片中文资料.rar
593.	http://115.com/file/c2lmk3r8#0593、AVR单片机C语言开发指导.rar
594.	http://115.com/file/beh3jrma#0594、avr单片机原理及应用.rar
595.	http://115.com/file/dpn2b44o#0595、AVR高速嵌入式单片机原理与应用.rar
596.	http://115.com/file/e76w4ykw#0596、《AVR高速嵌入式单片机原理与应用》.rar
597.	http://115.com/file/dpn2buue#0597、《数字电子技术》__电子教案.rar
598.	http://115.com/file/beh3c86i#0598、《通用集成电路速查手册》.rar
599.	http://115.com/file/beh39pp9#0599、555集成电路应用800例.rar
600.	http://115.com/file/dpn2bvv1#0600、CMOS_4000系列60钟常用集成电路的应用.rar
601.	http://115.com/file/beh3ch3a#0601、单电源运放图解资料手册.rar
602.	http://115.com/file/anqtl1jw#0602、单片机应用技术选.rar
603.	http://115.com/file/anqt0raw#0603、灯光控制集成电路与灯光控制器制作.rar
604.	http://115.com/file/c2lm50tm#0604、开关电源的设计与应用.rar
605.	http://115.com/file/c2lm5h70#0605、开关稳压电源.rar
606.	http://115.com/file/anqtcy8r#0606、开关稳压电源——原理、设计与实用电路.rar
607.	http://115.com/file/dpn2k9nz#0607、实用电子电路大全.rar
608.	http://115.com/file/beh3mkpp#0608、实用电子线路集.rar
609.	http://115.com/file/anqtligw#0609、实用家用电器功能扩展器制作.rar
610.	http://115.com/file/dpn2vwwo#0610、通信电源新技术与新设备丛书__通信用高频开关电源.rar
611.	http://115.com/file/e76w9qtw#0611、无线电制作精汇.rar
612.	http://115.com/file/anqtl7lk#0612、新型单片机开关电源的设计与应用.rar
613.	http://115.com/file/c2lm5biv#0613、新型单片开关电源的设计与应用.rar
614.	http://115.com/file/e76wjagp#0614、新型电源.rar
615.	http://115.com/file/e76w88kn#0615、新型开关电源实用技术.rar
616.	http://115.com/file/anqtrsc1#0616、新颖开关稳压电源.rar
617.	http://115.com/file/e76wx7uw#0617、新颖实用电子设计与制作.rar
618.	http://115.com/file/c2lm6as9#0618、制作你自己的爬虫机器人.rar
619.	http://115.com/file/dpn2uzn1#0619、1-100分钟定时器电路.rar
620.	http://115.com/file/e76wxhmq#0620、1.5V-35V可调直流电源制作.rar
621.	http://115.com/file/dpn2ufxb#0621、1分钟—20小时定时器电路.rar
622.	http://115.com/file/beh3v3br#0622、4路抢答器.rar
623.	http://115.com/file/beh3vj9u#0623、5V→30V转换电路.rar
624.	http://115.com/file/c2lm5y3h#0624、6V胶质电池充电器.rar
625.	http://115.com/file/beh3vlji#0625、8路抢答器.rar
626.	http://115.com/file/c2lm6uc0#0626、8通道红外遥控电路.rar
627.	http://115.com/file/dpn2uuyu#0627、10位数字密码锁.rar
628.	http://115.com/file/beh3ogvu#0628、12秒—90分钟定时器电路.rar
629.	http://115.com/file/anqtr4tw#0629、74HC14组成的方波振荡器.rar
630.	http://115.com/file/dpn2ui5u#0630、440Hz窄带（5Hz）声控开关.rar
631.	http://115.com/file/dpn2jz4z#0631、500kHz简易频率计.rar
632.	http://115.com/file/beh3n64i#0632、555测试电路.rar
633.	http://115.com/file/dpn2jdgu#0633、555单通道调制电路.rar
634.	http://115.com/file/dpn2jnw2#0634、555定时器.rar
635.	http://115.com/file/beh3neka#0635、555振荡器.rar
636.	http://115.com/file/c2lmckg8#0636、555组成的10分钟定时器.rar
637.	http://115.com/file/c2lmc8e9#0637、555组成的“投硬币”电路.rar
638.	http://115.com/file/c2lmcap0#0638、555组成的单稳态多谐振荡器.rar
639.	http://115.com/file/c2lmcet6#0639、555组成的电源检测报警电路.rar
640.	http://115.com/file/anqt8nj1#0640、555组成的定时电路.rar
641.	http://115.com/file/dpn2jtjz#0641、555组成的非稳态多谐振荡器.rar
642.	http://115.com/file/c2lmc6lm#0642、555组成的光暗报警电路.rar
643.	http://115.com/file/dpn2jvm1#0643、555组成的光线亮暗检测报警器.rar
644.	http://115.com/file/dpn2jj2e#0644、555组成的节拍器.rar
645.	http://115.com/file/dpn2jjes#0645、555组成的脉冲失落检测电路.rar
646.	http://115.com/file/e76wc5n4#0646、555组成的脉冲整形电路（施密特触发器）.rar
647.	http://115.com/file/e76wcwin#0647、555组成的倾斜检测报警器.rar
648.	http://115.com/file/e76w1e8n#0648、555组成的双音报警电路.rar
649.	http://115.com/file/dpn2j872#0649、555组成的提醒音发生电路.rar
650.	http://115.com/file/e76w1r7q#0650、555组成的载波振荡器.rar
651.	http://115.com/file/dpn2jg31#0651、4040B组成的LED显示计数器.rar
652.	http://115.com/file/e76w1dfp#0652、14093组成的脉宽调制器电路（电机调速）.rar
653.	http://115.com/file/anqt8x51#0653、CMOS单通道调制电路.rar
654.	http://115.com/file/e76wcflw#0654、DC-AC变换器.rar
655.	http://115.com/file/anqtp1ot#0655、DC-AC变换器LCD显示电子温度计.rar
656.	http://115.com/file/e76wcaj2#0656、DC-AC变换器PWM控制式电机速度控制电路.rar
657.	http://115.com/file/c2lmwz09#0657、DC-AC变换器TC4069UB组成的方波振荡器.rar
658.	http://115.com/file/e76wceym#0658、DC-AC变换器按钮型游戏基准电路.rar
659.	http://115.com/file/c2lmwxq0#0659、DC-AC变换器变形多谐振荡器.rar
660.	http://115.com/file/dpn24qt1#0660、DC-AC变换器标准多谐振荡器.rar
661.	http://115.com/file/dpn24cke#0661、不规则变换循环LED闪烁电路.rar
662.	http://115.com/file/e76wcbv5#0662、采用3524的PWM式电机速度控制电路.rar
663.	http://115.com/file/e76w02kw#0663、超声波鱼缸加氧器.rar
664.	http://115.com/file/anqt27as#0664、车辆转向灯电路.rar
665.	http://115.com/file/anqt2k85#0665、出租车空车灯LED环形闪烁电路.rar
666.	http://115.com/file/dpn240n1#0666、触摸调光灯.rar
667.	http://115.com/file/beh3bq53#0667、触摸开关.rar
668.	http://115.com/file/beh3bd89#0668、触摸控制定时器.rar
669.	http://115.com/file/dpn24od1#0669、触摸控制转换开关.rar
670.	http://115.com/file/c2lmw37h#0670、串联式多谐振荡器.rar
671.	http://115.com/file/beh31lku#0671、串入式声控延时开关.rar
672.	http://115.com/file/beh3bu9u#0672、单结晶体管多谐振荡器.rar
673.	http://115.com/file/beh3bypa#0673、单脉冲控制转换开关.rar
674.	http://115.com/file/beh3bg4v#0674、单脉冲控制转换开关基本电路.rar
675.	http://115.com/file/dpn2481q#0675、单稳态多谐振荡器.rar
676.	http://115.com/file/e76w2ws2#0676、单稳态多谐振荡器组成的定时器电路.rar
677.	http://115.com/file/c2lmvm18#0677、单轴操纵杆接口电路.rar
678.	http://115.com/file/e76w2s8p#0678、低电平输出光控电路.rar
679.	http://115.com/file/c2lmvpcm#0679、第三刹车灯电路.rar
680.	http://115.com/file/anqtbitb#0680、电场与漏电检测器.rar
681.	http://115.com/file/anqtbqe5#0681、电动车充电自动控制电路.rar
682.	http://115.com/file/anqtbgbs#0682、电话机检修测试仪.rar
683.	http://115.com/file/c2lmvedv#0683、电话检修仪.rar
684.	http://115.com/file/dpn2s5mu#0684、电子节拍器.rar
685.	http://115.com/file/anqtbnor#0685、电子锁.rar
686.	http://115.com/file/c2lmvkqh#0686、电子音乐门铃.rar
687.	http://115.com/file/e76w249w#0687、短波无线监听发射器1（100MHz）.rar
688.	http://115.com/file/dpn2sfze#0688、短波无线监听发射器2（100MHz）.rar
689.	http://115.com/file/beh3as2i#0689、短路检测式报警电路.rar
690.	http://115.com/file/e76w2jr4#0690、断线检测式报警电路.rar
691.	http://115.com/file/dpn2ssos#0691、断线式防贼报警电路.rar
692.	http://115.com/file/dpn2sj3u#0692、断续音报警信号发生器.rar
693.	http://115.com/file/e76w21f5#0693、多功能密码锁.rar
694.	http://115.com/file/anqtbzrs#0694、多谐—张弛振荡器.rar
695.	http://115.com/file/c2lmvqu0#0695、发射极耦合式多谐振荡器.rar
696.	http://115.com/file/c2lmvns8#0696、方波发生器.rar
697.	http://115.com/file/beh3a0j3#0697、非对称多谐振荡器.rar
698.	http://115.com/file/dpn2sg8s#0698、峰谷用电定时器.rar
699.	http://115.com/file/beh31pgr#0699、改进型发射极耦合式多谐振荡器.rar
700.	http://115.com/file/dpn2ai6s#0700、改进型模拟PUT(可编程单结晶体管)器件振荡器.rar
701.	http://115.com/file/beh31sm9#0701、高电平输出光控电路.rar
702.	http://115.com/file/dpn2se6b#0702、故障寻迹器.rar
703.	http://115.com/file/c2lmndfv#0703、光照不足报警检测电路.rar
704.	http://115.com/file/c2lmnbv8#0704、恒温器控制电路.rar
705.	http://115.com/file/dpn2s8m1#0705、红外遥控发射接收电路.rar
706.	http://115.com/file/dpn2cw72#0706、互补式多谐振荡器.rar
707.	http://115.com/file/dpn2cncu#0707、花样彩灯控制电路.rar
708.	http://115.com/file/anqt3gvk#0708、基本型发射极耦合式多谐振荡器.rar
709.	http://115.com/file/c2lmna68#0709、简单无线电遥控发射接收电路.rar
710.	http://115.com/file/beh35oqi#0710、简易无线电子琴.rar
711.	http://115.com/file/anqt3r2r#0711、接近报警器.rar
712.	http://115.com/file/anqt3pft#0712、金属探测器.rar
713.	http://115.com/file/dpn2ccfq#0713、晶体管组成的多谐振荡器.rar
714.	http://115.com/file/e76wujnq#0714、警笛声报警器.rar
715.	http://115.com/file/beh35am9#0715、警笛声发生器.rar
716.	http://115.com/file/e76wuutp#0716、九路编解码电路.rar
717.	http://115.com/file/beh35o4r#0717、居室防盗报警器.rar
718.	http://115.com/file/dpn2cjwz#0718、具有脉冲指示的逻辑探头.rar
719.	http://115.com/file/dpn2ca8e#0719、具有遥控功能的负载保护器.rar
720.	http://115.com/file/anqt3wkb#0720、具有音响指示的逻辑探头.rar
721.	http://115.com/file/dpn2c601#0721、8通道电子开关电路.rar
722.	http://115.com/file/anqt378r#0722、快速上升时间多谐振荡器.rar
723.	http://115.com/file/anqt3y9t#0723、宽范围压控振荡器.rar
724.	http://115.com/file/anqt36ww#0724、宽容限多谐振荡器.rar
725.	http://115.com/file/c2lmn3iv#0725、宽容限线性多谐振荡器.rar
726.	http://115.com/file/c2lmn0bm#0726、连续报警音发生器.rar
727.	http://115.com/file/beh35utr#0727、流水彩灯.rar
728.	http://115.com/file/beh35upp#0728、六路编解码电路.rar
729.	http://115.com/file/dpn2c8tu#0729、逻辑测试笔.rar
730.	http://115.com/file/anqt3y11#0730、脉冲触发定时器电路.rar
731.	http://115.com/file/c2lmn0of#0731、脉冲丢失检测器.rar
732.	http://115.com/file/beh3z8e9#0732、脉冲发生器.rar
733.	http://115.com/file/beh35ydi#0733、脉宽调制器电路（电机调速或调光）.rar
734.	http://115.com/file/dpn2crdz#0734、门灯自动光控制定时开关.rar
735.	http://115.com/file/e76wyhsq#0735、模拟ON-OFF开关.rar
736.	http://115.com/file/anqtz90r#0736、模拟PUT(可编程单结晶体管)器件双稳态电路.rar
737.	http://115.com/file/c2lmgzph#0737、模拟PUT(可编程单结晶体管)器件振荡器.rar
738.	http://115.com/file/anqtzt3k#0738、模拟SBS（硅双向开关电路）电路.rar
739.	http://115.com/file/anqtzjut#0739、模拟脉冲计数器.rar
740.	http://115.com/file/c2lmgph8#0740、莫尔斯电码练习器.rar
741.	http://115.com/file/beh3z6bi#0741、鸟鸣报警器.rar
742.	http://115.com/file/e76wynix#0742、汽车电压调压器.rar
743.	http://115.com/file/e76wyowq#0743、强制锁存电路.rar
744.	http://115.com/file/e76wyqx2#0744、去极化镍镉电池充电器.rar
745.	http://115.com/file/c2lmglxh#0745、三色交通灯模拟电路.rar
746.	http://115.com/file/beh3zxqr#0746、三相位方波振荡器.rar
747.	http://115.com/file/dpn26v0o#0747、声光报警信号发生器.rar
748.	http://115.com/file/anqtzecb#0748、声光电子节拍器.rar
749.	http://115.com/file/dpn26bfb#0749、施密特触发器.rar
750.	http://115.com/file/e76wyl5m#0750、数字拨盘（旋转编码器）.rar
751.	http://115.com/file/dpn26ulz#0751、数字电压表.rar
752.	http://115.com/file/c2lmg6jm#0752、双向来访人数监测器.rar
753.	http://115.com/file/dpn26rue#0753、水泵自动保护电路.rar
754.	http://115.com/file/beh3zi1u#0754、水质检测仪.rar
755.	http://115.com/file/c2lmg3f9#0755、四路编解码电路.rar
756.	http://115.com/file/anqtzb75#0756、通用红外遥控开关.rar
757.	http://115.com/file/beh3zg39#0757、往返式流动灯.rar
758.	http://115.com/file/dpn269ib#0758、物体运动检测电路.rar
759.	http://115.com/file/dpn266du#0759、线路通断测试器.rar
760.	http://115.com/file/c2lmgcvf#0760、信号发生器.rar
761.	http://115.com/file/beh3zdq3#0761、延迟触发叮咚门铃.rar
762.	http://115.com/file/e76wyc42#0762、延时接通继电器驱动电路.rar
763.	http://115.com/file/c2lmg7n0#0763、液面检测器.rar
764.	http://115.com/file/c2lmgw09#0764、音控开关.rar
765.	http://115.com/file/beh3zbp9#0765、音乐声光报警信号发生器.rar
766.	http://115.com/file/c2lmql8f#0766、隐蔽电线线路查找信号发生器（用收音机监听）.rar
767.	http://115.com/file/dpn2hpqs#0767、用555电路组成的DC-AC变换器.rar
768.	http://115.com/file/dpn2hw1q#0768、用分离元件组成的逻辑电路.rar
769.	http://115.com/file/beh3d9or#0769、鱼缸水循环自动控制器.rar
770.	http://115.com/file/c2lmqeb6#0770、照明灯延时控制电路.rar
771.	http://115.com/file/e76wkjdn#0771、照明过暗提醒电路.rar
772.	http://115.com/file/anqt7bur#0772、自动关断继电器驱动电路.rar
773.	http://115.com/file/anqt70ik#0773、A_D转换器.rar
774.	http://115.com/file/anqt7l2t#0774、LED显示器接口电路.rar
775.	http://115.com/file/beh3d1zp#0775、步进电机及驱动电路.rar
776.	http://115.com/file/dpn2hupe#0776、超声波传感器与应用电路.rar
777.	http://115.com/file/anqt78jb#0777、触模式5档电风扇.rar
778.	http://115.com/file/anqt7205#0778、单片机组成的声音报警输出电路.rar
779.	http://115.com/file/dpn2hc0z#0779、电流一电压变换电路.rar
780.	http://115.com/file/c2lmqgcm#0780、电压一频率.rar
781.	http://115.com/file/c2lms49f#0781、电子灭蝇器.rar
782.	http://115.com/file/e76w5fp2#0782、电子筛子.rar
783.	http://115.com/file/anqtkjkw#0783、电子胸花.rar
784.	http://115.com/file/e76w53iw#0784、多变流水灯控制电路.rar
785.	http://115.com/file/c2lms8t6#0785、固态继电器电路.rar
786.	http://115.com/file/dpn21n6b#0786、光电传感器与应用电路.rar
787.	http://115.com/file/anqtkgj1#0787、光控式道路施工闪烁警示灯控制电路.rar
788.	http://115.com/file/e76w57jq#0788、光控照明灯自动开关.rar
789.	http://115.com/file/anqtkeuk#0789、红外测量控器的发射与接收.rar
790.	http://115.com/file/anqtksi5#0790、红外探测自动开关.rar
791.	http://115.com/file/c2lmsp76#0791、直流电动机驱动接口电路.rar
792.	http://115.com/file/anqtkm4k#0792、红外线集成器件sNS9201在延时开关中的应用.rar
793.	http://115.com/file/beh3imh3#0793、霍尔传感器与应用电路.rar
794.	http://115.com/file/c2lms5mf#0794、继电器电路.rar
795.	http://115.com/file/c2lmsx69#0795、家用彩色幻灯电路.rar
796.	http://115.com/file/beh3i1sr#0796、简单实用触模式报警器.rar
797.	http://115.com/file/dpn21tes#0797、简单实用的可控硅无级调光器.rar
798.	http://115.com/file/e76w514q#0798、课程设计任务书-数字秒表.rar
799.	http://115.com/file/beh3i1ti#0799、六路循环彩灯控制电路.rar
800.	http://115.com/file/dpn214hu#0800、模拟自然风无级调适电风扇控制电路.rar
801.	http://115.com/file/dpn21stz#0801、燃气炉全自动点火电路.rar
802.	http://115.com/file/beh3ifyi#0802、闪光的摆.rar
803.	http://115.com/file/dpn21cd2#0803、神奇旋转彩灯电路.rar
804.	http://115.com/file/e76w5kc4#0804、声光双控延迟照明灯.rar
805.	http://115.com/file/c2lmst40#0805、声音报警电路.rar
806.	http://115.com/file/c2lmson6#0806、实用灯控节能开关.rar
807.	http://115.com/file/c2lms7ah#0807、实用时基电风扇模拟自然风控制电路.rar
808.	http://115.com/file/c2lms168#0808、实用无级触摸调光灯电路.rar
809.	http://115.com/file/e76w5mpm#0809、双向超沮报警器.rar
810.	http://115.com/file/anqtkvkb#0810、无干扰电风扇自然风控制器.rar
811.	http://115.com/file/anqtyheg#0811、无线电编码遥控4级调光灯开关.rar
812.	http://115.com/file/anqty4ft#0812、一种人体热释探测电路.rar
813.	http://115.com/file/beh3irqi#0813、有源滤波电路.rar
814.	http://115.com/file/c2lmt4e8#0814、增益电路.rar
815.	http://115.com/file/c2lmtb1f#0815、增益可自动变换的放大器设计.rar
816.	http://115.com/file/dpn20501#0816、常用电子元器件芯片资料.rar







