Analysis & Synthesis report for clock
Sat May 30 19:34:45 2009
Quartus II Version 7.2 Build 151 09/26/2007 SJ Full Version


---------------------
; Table of Contents ;
---------------------
  1. Legal Notice
  2. Analysis & Synthesis Summary
  3. Analysis & Synthesis Settings
  4. Analysis & Synthesis Source Files Read
  5. Analysis & Synthesis Resource Usage Summary
  6. Analysis & Synthesis Resource Utilization by Entity
  7. Registers Removed During Synthesis
  8. Source assignments for fen100:inst2|lpm_add_sub:Add0|addcore:adder[1]
  9. Source assignments for fen100:inst2|lpm_add_sub:Add0|addcore:adder[0]
 10. Source assignments for fen1:inst|lpm_add_sub:Add0|addcore:adder[3]
 11. Source assignments for fen1:inst|lpm_add_sub:Add0|addcore:adder[2]
 12. Source assignments for fen1:inst|lpm_add_sub:Add0|addcore:adder[1]
 13. Source assignments for fen1:inst|lpm_add_sub:Add0|addcore:adder[0]
 14. Parameter Settings for Inferred Entity Instance: fen100:inst2|lpm_add_sub:Add0
 15. Parameter Settings for Inferred Entity Instance: fen1:inst|lpm_add_sub:Add0
 16. Analysis & Synthesis Messages



----------------
; Legal Notice ;
----------------
Copyright (C) 1991-2007 Altera Corporation
Your use of Altera Corporation's design tools, logic functions 
and other software and tools, and its AMPP partner logic 
functions, and any output files from any of the foregoing 
(including device programming or simulation files), and any 
associated documentation or information are expressly subject 
to the terms and conditions of the Altera Program License 
Subscription Agreement, Altera MegaCore Function License 
Agreement, or other applicable license agreement, including, 
without limitation, that your use is for the sole purpose of 
programming logic devices manufactured by Altera and sold by 
Altera or its authorized distributors.  Please refer to the 
applicable agreement for further details.



+------------------------------------------------------------------------+
; Analysis & Synthesis Summary                                           ;
+-----------------------------+------------------------------------------+
; Analysis & Synthesis Status ; Successful - Sat May 30 19:34:45 2009    ;
; Quartus II Version          ; 7.2 Build 151 09/26/2007 SJ Full Version ;
; Revision Name               ; clock                                    ;
; Top-level Entity Name       ; clock                                    ;
; Family                      ; MAX7000S                                 ;
; Total macrocells            ; 111                                      ;
; Total pins                  ; 15                                       ;
+-----------------------------+------------------------------------------+


+--------------------------------------------------------------------------------------------------------+
; Analysis & Synthesis Settings                                                                          ;
+----------------------------------------------------------------------+-----------------+---------------+
; Option                                                               ; Setting         ; Default Value ;
+----------------------------------------------------------------------+-----------------+---------------+
; Device                                                               ; EPM7128SLC84-15 ;               ;
; Top-level entity name                                                ; clock           ; clock         ;
; Family name                                                          ; MAX7000S        ; Stratix       ;
; Use smart compilation                                                ; Off             ; Off           ;
; Create Debugging Nodes for IP Cores                                  ; Off             ; Off           ;
; Preserve fewer node names                                            ; On              ; On            ;
; Disable OpenCore Plus hardware evaluation                            ; Off             ; Off           ;
; Verilog Version                                                      ; Verilog_2001    ; Verilog_2001  ;
; VHDL Version                                                         ; VHDL93          ; VHDL93        ;
; State Machine Processing                                             ; Auto            ; Auto          ;
; Safe State Machine                                                   ; Off             ; Off           ;
; Extract Verilog State Machines                                       ; On              ; On            ;
; Extract VHDL State Machines                                          ; On              ; On            ;
; Ignore Verilog initial constructs                                    ; Off             ; Off           ;
; Add Pass-Through Logic to Inferred RAMs                              ; On              ; On            ;
; Parallel Synthesis                                                   ; Off             ; Off           ;
; NOT Gate Push-Back                                                   ; On              ; On            ;
; Power-Up Don't Care                                                  ; On              ; On            ;
; Remove Duplicate Registers                                           ; On              ; On            ;
; Ignore CARRY Buffers                                                 ; Off             ; Off           ;
; Ignore CASCADE Buffers                                               ; Off             ; Off           ;
; Ignore GLOBAL Buffers                                                ; Off             ; Off           ;
; Ignore ROW GLOBAL Buffers                                            ; Off             ; Off           ;
; Ignore LCELL Buffers -- MAX 7000B/7000AE/3000A/7000S/7000A           ; Auto            ; Auto          ;
; Ignore SOFT Buffers -- MAX 7000B/7000AE/3000A/7000S/7000A            ; Off             ; Off           ;
; Limit AHDL Integers to 32 Bits                                       ; Off             ; Off           ;
; Optimization Technique -- MAX 7000B/7000AE/3000A/7000S/7000A         ; Speed           ; Speed         ;
; Allow XOR Gate Usage                                                 ; On              ; On            ;
; Auto Logic Cell Insertion                                            ; On              ; On            ;
; Parallel Expander Chain Length -- MAX 7000B/7000AE/3000A/7000S/7000A ; 4               ; 4             ;
; Auto Parallel Expanders                                              ; On              ; On            ;
; Auto Open-Drain Pins                                                 ; On              ; On            ;
; Auto Resource Sharing                                                ; Off             ; Off           ;
; Maximum Fan-in Per Macrocell -- MAX 7000B/7000AE/3000A/7000S/7000A   ; 100             ; 100           ;
; Ignore translate_off and synthesis_off directives                    ; Off             ; Off           ;
; Show Parameter Settings Tables in Synthesis Report                   ; On              ; On            ;
; HDL message level                                                    ; Level2          ; Level2        ;
; Suppress Register Optimization Related Messages                      ; Off             ; Off           ;
; Number of Removed Registers Reported in Synthesis Report             ; 100             ; 100           ;
; Block Design Naming                                                  ; Auto            ; Auto          ;
+----------------------------------------------------------------------+-----------------+---------------+


+------------------------------------------------------------------------------------------------------------------------------------------------------------------------------------------------------------------------+
; Analysis & Synthesis Source Files Read                                                                                                                                                                                 ;
+----------------------------------+-----------------+------------------------------------+------------------------------------------------------------------------------------------------------------------------------+
; File Name with User-Entered Path ; Used in Netlist ; File Type                          ; File Name with Absolute Path                                                                                                 ;
+----------------------------------+-----------------+------------------------------------+------------------------------------------------------------------------------------------------------------------------------+
; clock.bdf                        ; yes             ; User Block Diagram/Schematic File  ; F:/EDA/edaziliao/新建文件夹/CPLD开发板VHDL源程序并附上开发板的/VHDL_Development_Board_Sources/综合实验/数字时钟/clock.bdf    ;
; decode47.vhd                     ; yes             ; User VHDL File                     ; F:/EDA/edaziliao/新建文件夹/CPLD开发板VHDL源程序并附上开发板的/VHDL_Development_Board_Sources/综合实验/数字时钟/decode47.vhd ;
; sel.vhd                          ; yes             ; User VHDL File                     ; F:/EDA/edaziliao/新建文件夹/CPLD开发板VHDL源程序并附上开发板的/VHDL_Development_Board_Sources/综合实验/数字时钟/sel.vhd      ;
; fen60.vhd                        ; yes             ; User VHDL File                     ; F:/EDA/edaziliao/新建文件夹/CPLD开发板VHDL源程序并附上开发板的/VHDL_Development_Board_Sources/综合实验/数字时钟/fen60.vhd    ;
; fen24.vhd                        ; yes             ; User VHDL File                     ; F:/EDA/edaziliao/新建文件夹/CPLD开发板VHDL源程序并附上开发板的/VHDL_Development_Board_Sources/综合实验/数字时钟/fen24.vhd    ;
; fen1.vhd                         ; yes             ; User VHDL File                     ; F:/EDA/edaziliao/新建文件夹/CPLD开发板VHDL源程序并附上开发板的/VHDL_Development_Board_Sources/综合实验/数字时钟/fen1.vhd     ;
; fen100.vhd                       ; yes             ; User VHDL File                     ; F:/EDA/edaziliao/新建文件夹/CPLD开发板VHDL源程序并附上开发板的/VHDL_Development_Board_Sources/综合实验/数字时钟/fen100.vhd   ;
; lpm_add_sub.tdf                  ; yes             ; Megafunction                       ; c:/altera/72/quartus/libraries/megafunctions/lpm_add_sub.tdf                                                                 ;
; addcore.inc                      ; yes             ; Megafunction                       ; c:/altera/72/quartus/libraries/megafunctions/addcore.inc                                                                     ;
; look_add.inc                     ; yes             ; Megafunction                       ; c:/altera/72/quartus/libraries/megafunctions/look_add.inc                                                                    ;
; bypassff.inc                     ; yes             ; Megafunction                       ; c:/altera/72/quartus/libraries/megafunctions/bypassff.inc                                                                    ;
; altshift.inc                     ; yes             ; Megafunction                       ; c:/altera/72/quartus/libraries/megafunctions/altshift.inc                                                                    ;
; alt_stratix_add_sub.inc          ; yes             ; Megafunction                       ; c:/altera/72/quartus/libraries/megafunctions/alt_stratix_add_sub.inc                                                         ;
; alt_mercury_add_sub.inc          ; yes             ; Megafunction                       ; c:/altera/72/quartus/libraries/megafunctions/alt_mercury_add_sub.inc                                                         ;
; aglobal72.inc                    ; yes             ; Megafunction                       ; c:/altera/72/quartus/libraries/megafunctions/aglobal72.inc                                                                   ;
; addcore.tdf                      ; yes             ; Megafunction                       ; c:/altera/72/quartus/libraries/megafunctions/addcore.tdf                                                                     ;
; a_csnbuffer.inc                  ; yes             ; Megafunction                       ; c:/altera/72/quartus/libraries/megafunctions/a_csnbuffer.inc                                                                 ;
; a_csnbuffer.tdf                  ; yes             ; Megafunction                       ; c:/altera/72/quartus/libraries/megafunctions/a_csnbuffer.tdf                                                                 ;
; look_add.tdf                     ; yes             ; Megafunction                       ; c:/altera/72/quartus/libraries/megafunctions/look_add.tdf                                                                    ;
; altshift.tdf                     ; yes             ; Megafunction                       ; c:/altera/72/quartus/libraries/megafunctions/altshift.tdf                                                                    ;
+----------------------------------+-----------------+------------------------------------+------------------------------------------------------------------------------------------------------------------------------+


+---------------------------------------------+
; Analysis & Synthesis Resource Usage Summary ;
+----------------------+----------------------+
; Resource             ; Usage                ;
+----------------------+----------------------+
; Logic cells          ; 111                  ;
; Total registers      ; 81                   ;
; I/O pins             ; 15                   ;
; Parallel expanders   ; 12                   ;
; Maximum fan-out node ; rst                  ;
; Maximum fan-out      ; 83                   ;
; Total fan-out        ; 1330                 ;
; Average fan-out      ; 10.56                ;
+----------------------+----------------------+


+-------------------------------------------------------------------------------------------------------------------------------------------------------+
; Analysis & Synthesis Resource Utilization by Entity                                                                                                   ;
+---------------------------------------+------------+------+----------------------------------------------------------------------------+--------------+
; Compilation Hierarchy Node            ; Macrocells ; Pins ; Full Hierarchy Name                                                        ; Library Name ;
+---------------------------------------+------------+------+----------------------------------------------------------------------------+--------------+
; |clock                                ; 111        ; 15   ; |clock                                                                     ; work         ;
;    |decode47:inst6|                   ; 7          ; 0    ; |clock|decode47:inst6                                                      ; work         ;
;    |fen100:inst2|                     ; 18         ; 0    ; |clock|fen100:inst2                                                        ; work         ;
;    |fen1:inst|                        ; 41         ; 0    ; |clock|fen1:inst                                                           ; work         ;
;       |lpm_add_sub:Add0|              ; 6          ; 0    ; |clock|fen1:inst|lpm_add_sub:Add0                                          ; work         ;
;          |addcore:adder[2]|           ; 5          ; 0    ; |clock|fen1:inst|lpm_add_sub:Add0|addcore:adder[2]                         ; work         ;
;             |a_csnbuffer:result_node| ; 5          ; 0    ; |clock|fen1:inst|lpm_add_sub:Add0|addcore:adder[2]|a_csnbuffer:result_node ; work         ;
;          |addcore:adder[3]|           ; 1          ; 0    ; |clock|fen1:inst|lpm_add_sub:Add0|addcore:adder[3]                         ; work         ;
;             |a_csnbuffer:result_node| ; 1          ; 0    ; |clock|fen1:inst|lpm_add_sub:Add0|addcore:adder[3]|a_csnbuffer:result_node ; work         ;
;    |fen24:inst4|                      ; 8          ; 0    ; |clock|fen24:inst4                                                         ; work         ;
;    |fen60:inst3|                      ; 10         ; 0    ; |clock|fen60:inst3                                                         ; work         ;
;    |fen60:inst7|                      ; 10         ; 0    ; |clock|fen60:inst7                                                         ; work         ;
;    |sel:inst5|                        ; 17         ; 0    ; |clock|sel:inst5                                                           ; work         ;
+---------------------------------------+------------+------+----------------------------------------------------------------------------+--------------+


+-------------------------------------------------------------------------+
; Registers Removed During Synthesis                                      ;
+---------------------------------------+---------------------------------+
; Register name                         ; Reason for Removal              ;
+---------------------------------------+---------------------------------+
; fen1:inst|cnt[0]                      ; Merged with fen100:inst2|cnt[0] ;
; Total Number of Removed Registers = 1 ;                                 ;
+---------------------------------------+---------------------------------+


+-----------------------------------------------------------------------+
; Source assignments for fen100:inst2|lpm_add_sub:Add0|addcore:adder[1] ;
+---------------------------+-------+------+----------------------------+
; Assignment                ; Value ; From ; To                         ;
+---------------------------+-------+------+----------------------------+
; SUPPRESS_DA_RULE_INTERNAL ; A103  ; -    ; -                          ;
+---------------------------+-------+------+----------------------------+


+-----------------------------------------------------------------------+
; Source assignments for fen100:inst2|lpm_add_sub:Add0|addcore:adder[0] ;
+---------------------------+-------+------+----------------------------+
; Assignment                ; Value ; From ; To                         ;
+---------------------------+-------+------+----------------------------+
; SUPPRESS_DA_RULE_INTERNAL ; A103  ; -    ; -                          ;
+---------------------------+-------+------+----------------------------+


+--------------------------------------------------------------------+
; Source assignments for fen1:inst|lpm_add_sub:Add0|addcore:adder[3] ;
+---------------------------+-------+------+-------------------------+
; Assignment                ; Value ; From ; To                      ;
+---------------------------+-------+------+-------------------------+
; SUPPRESS_DA_RULE_INTERNAL ; A103  ; -    ; -                       ;
+---------------------------+-------+------+-------------------------+


+--------------------------------------------------------------------+
; Source assignments for fen1:inst|lpm_add_sub:Add0|addcore:adder[2] ;
+---------------------------+-------+------+-------------------------+
; Assignment                ; Value ; From ; To                      ;
+---------------------------+-------+------+-------------------------+
; SUPPRESS_DA_RULE_INTERNAL ; A103  ; -    ; -                       ;
+---------------------------+-------+------+-------------------------+


+--------------------------------------------------------------------+
; Source assignments for fen1:inst|lpm_add_sub:Add0|addcore:adder[1] ;
+---------------------------+-------+------+-------------------------+
; Assignment                ; Value ; From ; To                      ;
+---------------------------+-------+------+-------------------------+
; SUPPRESS_DA_RULE_INTERNAL ; A103  ; -    ; -                       ;
+---------------------------+-------+------+-------------------------+


+--------------------------------------------------------------------+
; Source assignments for fen1:inst|lpm_add_sub:Add0|addcore:adder[0] ;
+---------------------------+-------+------+-------------------------+
; Assignment                ; Value ; From ; To                      ;
+---------------------------+-------+------+-------------------------+
; SUPPRESS_DA_RULE_INTERNAL ; A103  ; -    ; -                       ;
+---------------------------+-------+------+-------------------------+


+--------------------------------------------------------------------------------+
; Parameter Settings for Inferred Entity Instance: fen100:inst2|lpm_add_sub:Add0 ;
+------------------------+-------------+-----------------------------------------+
; Parameter Name         ; Value       ; Type                                    ;
+------------------------+-------------+-----------------------------------------+
; LPM_WIDTH              ; 15          ; Untyped                                 ;
; LPM_REPRESENTATION     ; UNSIGNED    ; Untyped                                 ;
; LPM_DIRECTION          ; ADD         ; Untyped                                 ;
; ONE_INPUT_IS_CONSTANT  ; YES         ; Untyped                                 ;
; LPM_PIPELINE           ; 0           ; Untyped                                 ;
; MAXIMIZE_SPEED         ; 5           ; Untyped                                 ;
; REGISTERED_AT_END      ; 0           ; Untyped                                 ;
; OPTIMIZE_FOR_SPEED     ; 9           ; Untyped                                 ;
; USE_CS_BUFFERS         ; 1           ; Untyped                                 ;
; CARRY_CHAIN            ; MANUAL      ; Untyped                                 ;
; CARRY_CHAIN_LENGTH     ; 48          ; CARRY_CHAIN_LENGTH                      ;
; DEVICE_FAMILY          ; MAX7000S    ; Untyped                                 ;
; USE_WYS                ; OFF         ; Untyped                                 ;
; STYLE                  ; FAST        ; Untyped                                 ;
; CBXI_PARAMETER         ; add_sub_9ph ; Untyped                                 ;
; AUTO_CARRY_CHAINS      ; ON          ; AUTO_CARRY                              ;
; IGNORE_CARRY_BUFFERS   ; OFF         ; IGNORE_CARRY                            ;
; AUTO_CASCADE_CHAINS    ; ON          ; AUTO_CASCADE                            ;
; IGNORE_CASCADE_BUFFERS ; OFF         ; IGNORE_CASCADE                          ;
+------------------------+-------------+-----------------------------------------+
Note: In order to hide this table in the UI and the text report file, please set the "Show Parameter Settings Tables in Synthesis Report" option in "Analysis and Synthesis Settings -> More Settings" to "Off".


+-----------------------------------------------------------------------------+
; Parameter Settings for Inferred Entity Instance: fen1:inst|lpm_add_sub:Add0 ;
+------------------------+-------------+--------------------------------------+
; Parameter Name         ; Value       ; Type                                 ;
+------------------------+-------------+--------------------------------------+
; LPM_WIDTH              ; 26          ; Untyped                              ;
; LPM_REPRESENTATION     ; UNSIGNED    ; Untyped                              ;
; LPM_DIRECTION          ; ADD         ; Untyped                              ;
; ONE_INPUT_IS_CONSTANT  ; YES         ; Untyped                              ;
; LPM_PIPELINE           ; 0           ; Untyped                              ;
; MAXIMIZE_SPEED         ; 5           ; Untyped                              ;
; REGISTERED_AT_END      ; 0           ; Untyped                              ;
; OPTIMIZE_FOR_SPEED     ; 9           ; Untyped                              ;
; USE_CS_BUFFERS         ; 1           ; Untyped                              ;
; CARRY_CHAIN            ; MANUAL      ; Untyped                              ;
; CARRY_CHAIN_LENGTH     ; 48          ; CARRY_CHAIN_LENGTH                   ;
; DEVICE_FAMILY          ; MAX7000S    ; Untyped                              ;
; USE_WYS                ; OFF         ; Untyped                              ;
; STYLE                  ; FAST        ; Untyped                              ;
; CBXI_PARAMETER         ; add_sub_bph ; Untyped                              ;
; AUTO_CARRY_CHAINS      ; ON          ; AUTO_CARRY                           ;
; IGNORE_CARRY_BUFFERS   ; OFF         ; IGNORE_CARRY                         ;
; AUTO_CASCADE_CHAINS    ; ON          ; AUTO_CASCADE                         ;
; IGNORE_CASCADE_BUFFERS ; OFF         ; IGNORE_CASCADE                       ;
+------------------------+-------------+--------------------------------------+
Note: In order to hide this table in the UI and the text report file, please set the "Show Parameter Settings Tables in Synthesis Report" option in "Analysis and Synthesis Settings -> More Settings" to "Off".


+-------------------------------+
; Analysis & Synthesis Messages ;
+-------------------------------+
Info: *******************************************************************
Info: Running Quartus II Analysis & Synthesis
    Info: Version 7.2 Build 151 09/26/2007 SJ Full Version
    Info: Processing started: Sat May 30 19:34:39 2009
Info: Command: quartus_map --read_settings_files=on --write_settings_files=off clock -c clock
Info: Found 1 design units, including 1 entities, in source file clock.bdf
    Info: Found entity 1: clock
Info: Found 2 design units, including 1 entities, in source file decode47.vhd
    Info: Found design unit 1: decode47-behave
    Info: Found entity 1: decode47
Info: Found 2 design units, including 1 entities, in source file sel.vhd
    Info: Found design unit 1: sel-behave
    Info: Found entity 1: sel
Info: Found 2 design units, including 1 entities, in source file fen60.vhd
    Info: Found design unit 1: fen60-behave
    Info: Found entity 1: fen60
Info: Found 2 design units, including 1 entities, in source file fen24.vhd
    Info: Found design unit 1: fen24-behave
    Info: Found entity 1: fen24
Info: Found 2 design units, including 1 entities, in source file fen1.vhd
    Info: Found design unit 1: fen1-behave
    Info: Found entity 1: fen1
Info: Found 2 design units, including 1 entities, in source file fen100.vhd
    Info: Found design unit 1: fen100-behave
    Info: Found entity 1: fen100
Info: Elaborating entity "clock" for the top level hierarchy
Warning: Processing legacy GDF or BDF entity "clock" with Max+Plus II bus and instance naming rules
Info: Elaborating entity "decode47" for hierarchy "decode47:inst6"
Info: Elaborating entity "sel" for hierarchy "sel:inst5"
Info: Elaborating entity "fen100" for hierarchy "fen100:inst2"
Info: Elaborating entity "fen60" for hierarchy "fen60:inst3"
Warning (10492): VHDL Process Statement warning at fen60.vhd(49): signal "tem1" is read inside the Process Statement but isn't in the Process Statement's sensitivity list
Warning (10492): VHDL Process Statement warning at fen60.vhd(50): signal "tem2" is read inside the Process Statement but isn't in the Process Statement's sensitivity list
Info: Elaborating entity "fen1" for hierarchy "fen1:inst"
Info: Elaborating entity "fen24" for hierarchy "fen24:inst4"
Warning (10492): VHDL Process Statement warning at fen24.vhd(55): signal "tem1" is read inside the Process Statement but isn't in the Process Statement's sensitivity list
Warning (10492): VHDL Process Statement warning at fen24.vhd(56): signal "tem2" is read inside the Process Statement but isn't in the Process Statement's sensitivity list
Info: Inferred 2 megafunctions from design logic
    Info: Inferred adder/subtractor megafunction ("lpm_add_sub") from the following logic: "fen100:inst2|Add0"
    Info: Inferred adder/subtractor megafunction ("lpm_add_sub") from the following logic: "fen1:inst|Add0"
Info: Found 1 design units, including 1 entities, in source file c:/altera/72/quartus/libraries/megafunctions/lpm_add_sub.tdf
    Info: Found entity 1: lpm_add_sub
Info: Elaborated megafunction instantiation "fen100:inst2|lpm_add_sub:Add0"
Info: Found 1 design units, including 1 entities, in source file c:/altera/72/quartus/libraries/megafunctions/addcore.tdf
    Info: Found entity 1: addcore
Info: Elaborated megafunction instantiation "fen100:inst2|lpm_add_sub:Add0|addcore:adder[1]", which is child of megafunction instantiation "fen100:inst2|lpm_add_sub:Add0"
Info: Instantiated megafunction "fen100:inst2|lpm_add_sub:Add0" with the following parameter:
    Info: Parameter "LPM_WIDTH" = "15"
    Info: Parameter "LPM_DIRECTION" = "ADD"
    Info: Parameter "LPM_REPRESENTATION" = "UNSIGNED"
    Info: Parameter "ONE_INPUT_IS_CONSTANT" = "YES"
Info: Found 1 design units, including 1 entities, in source file c:/altera/72/quartus/libraries/megafunctions/a_csnbuffer.tdf
    Info: Found entity 1: a_csnbuffer
Info: Elaborated megafunction instantiation "fen100:inst2|lpm_add_sub:Add0|addcore:adder[1]|a_csnbuffer:oflow_node", which is child of megafunction instantiation "fen100:inst2|lpm_add_sub:Add0"
Info: Instantiated megafunction "fen100:inst2|lpm_add_sub:Add0" with the following parameter:
    Info: Parameter "LPM_WIDTH" = "15"
    Info: Parameter "LPM_DIRECTION" = "ADD"
    Info: Parameter "LPM_REPRESENTATION" = "UNSIGNED"
    Info: Parameter "ONE_INPUT_IS_CONSTANT" = "YES"
Info: Elaborated megafunction instantiation "fen100:inst2|lpm_add_sub:Add0|addcore:adder[1]|a_csnbuffer:result_node", which is child of megafunction instantiation "fen100:inst2|lpm_add_sub:Add0"
Info: Instantiated megafunction "fen100:inst2|lpm_add_sub:Add0" with the following parameter:
    Info: Parameter "LPM_WIDTH" = "15"
    Info: Parameter "LPM_DIRECTION" = "ADD"
    Info: Parameter "LPM_REPRESENTATION" = "UNSIGNED"
    Info: Parameter "ONE_INPUT_IS_CONSTANT" = "YES"
Info: Elaborated megafunction instantiation "fen100:inst2|lpm_add_sub:Add0|addcore:adder[0]", which is child of megafunction instantiation "fen100:inst2|lpm_add_sub:Add0"
Info: Instantiated megafunction "fen100:inst2|lpm_add_sub:Add0" with the following parameter:
    Info: Parameter "LPM_WIDTH" = "15"
    Info: Parameter "LPM_DIRECTION" = "ADD"
    Info: Parameter "LPM_REPRESENTATION" = "UNSIGNED"
    Info: Parameter "ONE_INPUT_IS_CONSTANT" = "YES"
Info: Found 1 design units, including 1 entities, in source file c:/altera/72/quartus/libraries/megafunctions/look_add.tdf
    Info: Found entity 1: look_add
Info: Elaborated megafunction instantiation "fen100:inst2|lpm_add_sub:Add0|look_add:look_ahead_unit", which is child of megafunction instantiation "fen100:inst2|lpm_add_sub:Add0"
Info: Instantiated megafunction "fen100:inst2|lpm_add_sub:Add0" with the following parameter:
    Info: Parameter "LPM_WIDTH" = "15"
    Info: Parameter "LPM_DIRECTION" = "ADD"
    Info: Parameter "LPM_REPRESENTATION" = "UNSIGNED"
    Info: Parameter "ONE_INPUT_IS_CONSTANT" = "YES"
Info: Found 1 design units, including 1 entities, in source file c:/altera/72/quartus/libraries/megafunctions/altshift.tdf
    Info: Found entity 1: altshift
Info: Elaborated megafunction instantiation "fen100:inst2|lpm_add_sub:Add0|altshift:result_ext_latency_ffs", which is child of megafunction instantiation "fen100:inst2|lpm_add_sub:Add0"
Info: Instantiated megafunction "fen100:inst2|lpm_add_sub:Add0" with the following parameter:
    Info: Parameter "LPM_WIDTH" = "15"
    Info: Parameter "LPM_DIRECTION" = "ADD"
    Info: Parameter "LPM_REPRESENTATION" = "UNSIGNED"
    Info: Parameter "ONE_INPUT_IS_CONSTANT" = "YES"
Info: Elaborated megafunction instantiation "fen100:inst2|lpm_add_sub:Add0|altshift:carry_ext_latency_ffs", which is child of megafunction instantiation "fen100:inst2|lpm_add_sub:Add0"
Info: Instantiated megafunction "fen100:inst2|lpm_add_sub:Add0" with the following parameter:
    Info: Parameter "LPM_WIDTH" = "15"
    Info: Parameter "LPM_DIRECTION" = "ADD"
    Info: Parameter "LPM_REPRESENTATION" = "UNSIGNED"
    Info: Parameter "ONE_INPUT_IS_CONSTANT" = "YES"
Info: Elaborated megafunction instantiation "fen1:inst|lpm_add_sub:Add0"
Info: Elaborated megafunction instantiation "fen1:inst|lpm_add_sub:Add0|addcore:adder[3]", which is child of megafunction instantiation "fen1:inst|lpm_add_sub:Add0"
Info: Instantiated megafunction "fen1:inst|lpm_add_sub:Add0" with the following parameter:
    Info: Parameter "LPM_WIDTH" = "26"
    Info: Parameter "LPM_DIRECTION" = "ADD"
    Info: Parameter "LPM_REPRESENTATION" = "UNSIGNED"
    Info: Parameter "ONE_INPUT_IS_CONSTANT" = "YES"
Info: Elaborated megafunction instantiation "fen1:inst|lpm_add_sub:Add0|look_add:look_ahead_unit", which is child of megafunction instantiation "fen1:inst|lpm_add_sub:Add0"
Info: Instantiated megafunction "fen1:inst|lpm_add_sub:Add0" with the following parameter:
    Info: Parameter "LPM_WIDTH" = "26"
    Info: Parameter "LPM_DIRECTION" = "ADD"
    Info: Parameter "LPM_REPRESENTATION" = "UNSIGNED"
    Info: Parameter "ONE_INPUT_IS_CONSTANT" = "YES"
Info: Elaborated megafunction instantiation "fen1:inst|lpm_add_sub:Add0|altshift:result_ext_latency_ffs", which is child of megafunction instantiation "fen1:inst|lpm_add_sub:Add0"
Info: Instantiated megafunction "fen1:inst|lpm_add_sub:Add0" with the following parameter:
    Info: Parameter "LPM_WIDTH" = "26"
    Info: Parameter "LPM_DIRECTION" = "ADD"
    Info: Parameter "LPM_REPRESENTATION" = "UNSIGNED"
    Info: Parameter "ONE_INPUT_IS_CONSTANT" = "YES"
Info: Ignored 41 buffer(s)
    Info: Ignored 41 SOFT buffer(s)
Info: Duplicate registers merged to single register
    Info: Duplicate register "fen1:inst|cnt[0]" merged to single register "fen100:inst2|cnt[0]"
Info: Registers with preset signals will power-up high
Info: Promoted pin-driven signal(s) to global signal
    Info: Promoted clock signal driven by pin "clk" to global clock signal
    Info: Promoted clear signal driven by pin "rst" to global clear signal
Info: Implemented 126 device resources after synthesis - the final resource count might be different
    Info: Implemented 2 input pins
    Info: Implemented 13 output pins
    Info: Implemented 111 macrocells
Info: Quartus II Analysis & Synthesis was successful. 0 errors, 5 warnings
    Info: Allocated 195 megabytes of memory during processing
    Info: Processing ended: Sat May 30 19:34:46 2009
    Info: Elapsed time: 00:00:07


